%YAML 1.1
%TAG !u! tag:unity3d.com,2011:
--- !u!29 &1
OcclusionCullingSettings:
  m_ObjectHideFlags: 0
  serializedVersion: 2
  m_OcclusionBakeSettings:
    smallestOccluder: 5
    smallestHole: 0.25
    backfaceThreshold: 100
  m_SceneGUID: 00000000000000000000000000000000
  m_OcclusionCullingData: {fileID: 0}
--- !u!104 &2
RenderSettings:
  m_ObjectHideFlags: 0
  serializedVersion: 9
  m_Fog: 0
  m_FogColor: {r: 0.5, g: 0.5, b: 0.5, a: 1}
  m_FogMode: 3
  m_FogDensity: 0.01
  m_LinearFogStart: 0
  m_LinearFogEnd: 300
  m_AmbientSkyColor: {r: 0.212, g: 0.227, b: 0.259, a: 1}
  m_AmbientEquatorColor: {r: 0.114, g: 0.125, b: 0.133, a: 1}
  m_AmbientGroundColor: {r: 0.047, g: 0.043, b: 0.035, a: 1}
  m_AmbientIntensity: 1
  m_AmbientMode: 0
  m_SubtractiveShadowColor: {r: 0.42, g: 0.478, b: 0.627, a: 1}
  m_SkyboxMaterial: {fileID: 10304, guid: 0000000000000000f000000000000000, type: 0}
  m_HaloStrength: 0.5
  m_FlareStrength: 1
  m_FlareFadeSpeed: 3
  m_HaloTexture: {fileID: 0}
  m_SpotCookie: {fileID: 10001, guid: 0000000000000000e000000000000000, type: 0}
  m_DefaultReflectionMode: 0
  m_DefaultReflectionResolution: 128
  m_ReflectionBounces: 1
  m_ReflectionIntensity: 1
  m_CustomReflection: {fileID: 0}
  m_Sun: {fileID: 705507994}
  m_IndirectSpecularColor: {r: 0, g: 0, b: 0, a: 1}
  m_UseRadianceAmbientProbe: 0
--- !u!157 &3
LightmapSettings:
  m_ObjectHideFlags: 0
  serializedVersion: 11
  m_GIWorkflowMode: 1
  m_GISettings:
    serializedVersion: 2
    m_BounceScale: 1
    m_IndirectOutputScale: 1
    m_AlbedoBoost: 1
    m_EnvironmentLightingMode: 0
    m_EnableBakedLightmaps: 1
    m_EnableRealtimeLightmaps: 0
  m_LightmapEditorSettings:
    serializedVersion: 12
    m_Resolution: 2
    m_BakeResolution: 40
    m_AtlasSize: 1024
    m_AO: 0
    m_AOMaxDistance: 1
    m_CompAOExponent: 1
    m_CompAOExponentDirect: 0
    m_ExtractAmbientOcclusion: 0
    m_Padding: 2
    m_LightmapParameters: {fileID: 0}
    m_LightmapsBakeMode: 1
    m_TextureCompression: 1
    m_FinalGather: 0
    m_FinalGatherFiltering: 1
    m_FinalGatherRayCount: 256
    m_ReflectionCompression: 2
    m_MixedBakeMode: 2
    m_BakeBackend: 1
    m_PVRSampling: 1
    m_PVRDirectSampleCount: 32
    m_PVRSampleCount: 500
    m_PVRBounces: 2
    m_PVREnvironmentSampleCount: 500
    m_PVREnvironmentReferencePointCount: 2048
    m_PVRFilteringMode: 2
    m_PVRDenoiserTypeDirect: 0
    m_PVRDenoiserTypeIndirect: 0
    m_PVRDenoiserTypeAO: 0
    m_PVRFilterTypeDirect: 0
    m_PVRFilterTypeIndirect: 0
    m_PVRFilterTypeAO: 0
    m_PVREnvironmentMIS: 0
    m_PVRCulling: 1
    m_PVRFilteringGaussRadiusDirect: 1
    m_PVRFilteringGaussRadiusIndirect: 5
    m_PVRFilteringGaussRadiusAO: 2
    m_PVRFilteringAtrousPositionSigmaDirect: 0.5
    m_PVRFilteringAtrousPositionSigmaIndirect: 2
    m_PVRFilteringAtrousPositionSigmaAO: 1
    m_ExportTrainingData: 0
    m_TrainingDataDestination: TrainingData
    m_LightProbeSampleCountMultiplier: 4
  m_LightingDataAsset: {fileID: 0}
  m_UseShadowmask: 1
--- !u!196 &4
NavMeshSettings:
  serializedVersion: 2
  m_ObjectHideFlags: 0
  m_BuildSettings:
    serializedVersion: 2
    agentTypeID: 0
    agentRadius: 0.5
    agentHeight: 2
    agentSlope: 45
    agentClimb: 0.4
    ledgeDropHeight: 0
    maxJumpAcrossDistance: 0
    minRegionArea: 2
    manualCellSize: 0
    cellSize: 0.16666667
    manualTileSize: 0
    tileSize: 256
    accuratePlacement: 0
    debug:
      m_Flags: 0
  m_NavMeshData: {fileID: 0}
--- !u!1 &28806698
GameObject:
  m_ObjectHideFlags: 0
  m_CorrespondingSourceObject: {fileID: 0}
  m_PrefabInstance: {fileID: 0}
  m_PrefabAsset: {fileID: 0}
  serializedVersion: 6
  m_Component:
  - component: {fileID: 28806704}
  - component: {fileID: 28806703}
  - component: {fileID: 28806702}
  - component: {fileID: 28806701}
  - component: {fileID: 28806700}
  - component: {fileID: 28806699}
  m_Layer: 0
  m_Name: New Game Object
  m_TagString: Untagged
  m_Icon: {fileID: 0}
  m_NavMeshLayer: 0
  m_StaticEditorFlags: 0
  m_IsActive: 1
--- !u!64 &28806699
MeshCollider:
  m_ObjectHideFlags: 0
  m_CorrespondingSourceObject: {fileID: 0}
  m_PrefabInstance: {fileID: 0}
  m_PrefabAsset: {fileID: 0}
  m_GameObject: {fileID: 28806698}
  m_Material: {fileID: 0}
  m_IsTrigger: 0
  m_Enabled: 1
  serializedVersion: 4
  m_Convex: 0
  m_CookingOptions: 30
  m_Mesh: {fileID: 1301703259}
--- !u!33 &28806700
MeshFilter:
  m_ObjectHideFlags: 10
  m_CorrespondingSourceObject: {fileID: 0}
  m_PrefabInstance: {fileID: 0}
  m_PrefabAsset: {fileID: 0}
  m_GameObject: {fileID: 28806698}
  m_Mesh: {fileID: 1301703259}
--- !u!23 &28806701
MeshRenderer:
  m_ObjectHideFlags: 0
  m_CorrespondingSourceObject: {fileID: 0}
  m_PrefabInstance: {fileID: 0}
  m_PrefabAsset: {fileID: 0}
  m_GameObject: {fileID: 28806698}
  m_Enabled: 1
  m_CastShadows: 1
  m_ReceiveShadows: 1
  m_DynamicOccludee: 1
  m_MotionVectors: 1
  m_LightProbeUsage: 1
  m_ReflectionProbeUsage: 1
  m_RayTracingMode: 2
  m_RenderingLayerMask: 1
  m_RendererPriority: 0
  m_Materials:
  - {fileID: 2100000, guid: c22777d6e868e4f2fb421913386b154e, type: 2}
  m_StaticBatchInfo:
    firstSubMesh: 0
    subMeshCount: 0
  m_StaticBatchRoot: {fileID: 0}
  m_ProbeAnchor: {fileID: 0}
  m_LightProbeVolumeOverride: {fileID: 0}
  m_ScaleInLightmap: 1
  m_ReceiveGI: 1
  m_PreserveUVs: 0
  m_IgnoreNormalsForChartDetection: 0
  m_ImportantGI: 0
  m_StitchLightmapSeams: 1
  m_SelectedEditorRenderState: 2
  m_MinimumChartSize: 4
  m_AutoUVMaxDistance: 0.5
  m_AutoUVMaxAngle: 89
  m_LightmapParameters: {fileID: 0}
  m_SortingLayerID: 0
  m_SortingLayer: 0
  m_SortingOrder: 0
--- !u!114 &28806702
MonoBehaviour:
  m_ObjectHideFlags: 0
  m_CorrespondingSourceObject: {fileID: 0}
  m_PrefabInstance: {fileID: 0}
  m_PrefabAsset: {fileID: 0}
  m_GameObject: {fileID: 28806698}
  m_Enabled: 1
  m_EditorHideFlags: 0
  m_Script: {fileID: 11500000, guid: bb977b126bc1b4f15813dcf9da9bb600, type: 3}
  m_Name: 
  m_EditorClassIdentifier: 
  m_Points: []
  m_Extrude: 0
  m_EditMode: 0
  m_FlipNormals: 0
  isOnGrid: 0
--- !u!114 &28806703
MonoBehaviour:
  m_ObjectHideFlags: 0
  m_CorrespondingSourceObject: {fileID: 0}
  m_PrefabInstance: {fileID: 0}
  m_PrefabAsset: {fileID: 0}
  m_GameObject: {fileID: 28806698}
  m_Enabled: 1
  m_EditorHideFlags: 0
  m_Script: {fileID: 11500000, guid: 8233d90336aea43098adf6dbabd606a2, type: 3}
  m_Name: 
  m_EditorClassIdentifier: 
  m_MeshFormatVersion: 1
  m_Faces: []
  m_SharedVertices: []
  m_SharedTextures: []
  m_Positions: []
  m_Textures0: []
  m_Textures2: []
  m_Textures3: []
  m_Tangents: []
  m_Colors: []
  m_UnwrapParameters:
    m_HardAngle: 88
    m_PackMargin: 20
    m_AngleError: 8
    m_AreaError: 15
  m_PreserveMeshAssetOnDestroy: 0
  assetGuid: 
  m_Mesh: {fileID: 1301703259}
  m_IsSelectable: 1
  m_SelectedFaces: 
  m_SelectedEdges: []
  m_SelectedVertices: 
--- !u!4 &28806704
Transform:
  m_ObjectHideFlags: 0
  m_CorrespondingSourceObject: {fileID: 0}
  m_PrefabInstance: {fileID: 0}
  m_PrefabAsset: {fileID: 0}
  m_GameObject: {fileID: 28806698}
  m_LocalRotation: {x: 0.70115775, y: 0, z: 0, w: 0.71300626}
  m_LocalPosition: {x: -0.09871797, y: 0.8187526, z: 0.6119112}
  m_LocalScale: {x: 1, y: 1, z: 1}
  m_Children: []
  m_Father: {fileID: 0}
  m_RootOrder: 1
  m_LocalEulerAnglesHint: {x: 0, y: 0, z: 0}
--- !u!1 &182040288
GameObject:
  m_ObjectHideFlags: 0
  m_CorrespondingSourceObject: {fileID: 0}
  m_PrefabInstance: {fileID: 0}
  m_PrefabAsset: {fileID: 0}
  serializedVersion: 6
  m_Component:
  - component: {fileID: 182040289}
  - component: {fileID: 182040292}
  - component: {fileID: 182040291}
  - component: {fileID: 182040290}
  m_Layer: 0
  m_Name: Cylinder (2)
  m_TagString: Untagged
  m_Icon: {fileID: 0}
  m_NavMeshLayer: 0
  m_StaticEditorFlags: 0
  m_IsActive: 1
--- !u!4 &182040289
Transform:
  m_ObjectHideFlags: 0
  m_CorrespondingSourceObject: {fileID: 0}
  m_PrefabInstance: {fileID: 0}
  m_PrefabAsset: {fileID: 0}
  m_GameObject: {fileID: 182040288}
  m_LocalRotation: {x: 0.7011577, y: -0, z: -0, w: 0.71300626}
  m_LocalPosition: {x: 0.14899999, y: 0.506, z: 0.42299998}
  m_LocalScale: {x: 0.21728292, y: 0.18993618, z: 0.21728292}
  m_Children: []
  m_Father: {fileID: 1324424878}
  m_RootOrder: 1
  m_LocalEulerAnglesHint: {x: 89.04, y: 0, z: 0}
--- !u!136 &182040290
CapsuleCollider:
  m_ObjectHideFlags: 0
  m_CorrespondingSourceObject: {fileID: 0}
  m_PrefabInstance: {fileID: 0}
  m_PrefabAsset: {fileID: 0}
  m_GameObject: {fileID: 182040288}
  m_Material: {fileID: 0}
  m_IsTrigger: 0
  m_Enabled: 1
  m_Radius: 0.5000001
  m_Height: 2
  m_Direction: 1
  m_Center: {x: 0.000000059604645, y: 0, z: -0.00000008940697}
--- !u!23 &182040291
MeshRenderer:
  m_ObjectHideFlags: 0
  m_CorrespondingSourceObject: {fileID: 0}
  m_PrefabInstance: {fileID: 0}
  m_PrefabAsset: {fileID: 0}
  m_GameObject: {fileID: 182040288}
  m_Enabled: 1
  m_CastShadows: 1
  m_ReceiveShadows: 1
  m_DynamicOccludee: 1
  m_MotionVectors: 1
  m_LightProbeUsage: 1
  m_ReflectionProbeUsage: 1
  m_RayTracingMode: 2
  m_RenderingLayerMask: 1
  m_RendererPriority: 0
  m_Materials:
  - {fileID: 10303, guid: 0000000000000000f000000000000000, type: 0}
  m_StaticBatchInfo:
    firstSubMesh: 0
    subMeshCount: 0
  m_StaticBatchRoot: {fileID: 0}
  m_ProbeAnchor: {fileID: 0}
  m_LightProbeVolumeOverride: {fileID: 0}
  m_ScaleInLightmap: 1
  m_ReceiveGI: 1
  m_PreserveUVs: 0
  m_IgnoreNormalsForChartDetection: 0
  m_ImportantGI: 0
  m_StitchLightmapSeams: 1
  m_SelectedEditorRenderState: 3
  m_MinimumChartSize: 4
  m_AutoUVMaxDistance: 0.5
  m_AutoUVMaxAngle: 89
  m_LightmapParameters: {fileID: 0}
  m_SortingLayerID: 0
  m_SortingLayer: 0
  m_SortingOrder: 0
--- !u!33 &182040292
MeshFilter:
  m_ObjectHideFlags: 0
  m_CorrespondingSourceObject: {fileID: 0}
  m_PrefabInstance: {fileID: 0}
  m_PrefabAsset: {fileID: 0}
  m_GameObject: {fileID: 182040288}
  m_Mesh: {fileID: 10206, guid: 0000000000000000e000000000000000, type: 0}
--- !u!1 &226460026
GameObject:
  m_ObjectHideFlags: 0
  m_CorrespondingSourceObject: {fileID: 0}
  m_PrefabInstance: {fileID: 0}
  m_PrefabAsset: {fileID: 0}
  serializedVersion: 6
  m_Component:
  - component: {fileID: 226460029}
  - component: {fileID: 226460028}
  - component: {fileID: 226460027}
  m_Layer: 0
  m_Name: Scene Variables
  m_TagString: Untagged
  m_Icon: {fileID: 0}
  m_NavMeshLayer: 0
  m_StaticEditorFlags: 0
  m_IsActive: 1
--- !u!114 &226460027
MonoBehaviour:
  m_ObjectHideFlags: 0
  m_CorrespondingSourceObject: {fileID: 0}
  m_PrefabInstance: {fileID: 0}
  m_PrefabAsset: {fileID: 0}
  m_GameObject: {fileID: 226460026}
  m_Enabled: 1
  m_EditorHideFlags: 0
  m_Script: {fileID: 995777834, guid: c8d0ad23af520fe46aabe2b1fecf6462, type: 3}
  m_Name: 
  m_EditorClassIdentifier: 
--- !u!114 &226460028
MonoBehaviour:
  m_ObjectHideFlags: 0
  m_CorrespondingSourceObject: {fileID: 0}
  m_PrefabInstance: {fileID: 0}
  m_PrefabAsset: {fileID: 0}
  m_GameObject: {fileID: 226460026}
  m_Enabled: 1
  m_EditorHideFlags: 0
  m_Script: {fileID: -1465209106, guid: c8d0ad23af520fe46aabe2b1fecf6462, type: 3}
  m_Name: 
  m_EditorClassIdentifier: 
  _data:
    _json: '{"declarations":{"collection":{"$content":[],"$version":"A"},"$version":"A"}}'
    _objectReferences: []
--- !u!4 &226460029
Transform:
  m_ObjectHideFlags: 0
  m_CorrespondingSourceObject: {fileID: 0}
  m_PrefabInstance: {fileID: 0}
  m_PrefabAsset: {fileID: 0}
  m_GameObject: {fileID: 226460026}
  m_LocalRotation: {x: 0, y: 0, z: 0, w: 1}
  m_LocalPosition: {x: 0, y: 0, z: 0}
  m_LocalScale: {x: 1, y: 1, z: 1}
  m_Children: []
  m_Father: {fileID: 0}
  m_RootOrder: 2
  m_LocalEulerAnglesHint: {x: 0, y: 0, z: 0}
--- !u!1 &368512200
GameObject:
  m_ObjectHideFlags: 0
  m_CorrespondingSourceObject: {fileID: 0}
  m_PrefabInstance: {fileID: 0}
  m_PrefabAsset: {fileID: 0}
  serializedVersion: 6
  m_Component:
  - component: {fileID: 368512201}
  - component: {fileID: 368512204}
  - component: {fileID: 368512203}
  - component: {fileID: 368512202}
  m_Layer: 0
  m_Name: Cylinder (1)
  m_TagString: Untagged
  m_Icon: {fileID: 0}
  m_NavMeshLayer: 0
  m_StaticEditorFlags: 0
  m_IsActive: 1
--- !u!4 &368512201
Transform:
  m_ObjectHideFlags: 0
  m_CorrespondingSourceObject: {fileID: 0}
  m_PrefabInstance: {fileID: 0}
  m_PrefabAsset: {fileID: 0}
  m_GameObject: {fileID: 368512200}
  m_LocalRotation: {x: 0.7011577, y: -0, z: -0, w: 0.71300626}
  m_LocalPosition: {x: -0.13400006, y: 0.506, z: 0.42299998}
  m_LocalScale: {x: 0.21728292, y: 0.18993618, z: 0.21728292}
  m_Children: []
  m_Father: {fileID: 1324424878}
  m_RootOrder: 0
  m_LocalEulerAnglesHint: {x: 89.04, y: 0, z: 0}
--- !u!136 &368512202
CapsuleCollider:
  m_ObjectHideFlags: 0
  m_CorrespondingSourceObject: {fileID: 0}
  m_PrefabInstance: {fileID: 0}
  m_PrefabAsset: {fileID: 0}
  m_GameObject: {fileID: 368512200}
  m_Material: {fileID: 0}
  m_IsTrigger: 0
  m_Enabled: 1
  m_Radius: 0.5000001
  m_Height: 2
  m_Direction: 1
  m_Center: {x: 0.000000059604645, y: 0, z: -0.00000008940697}
--- !u!23 &368512203
MeshRenderer:
  m_ObjectHideFlags: 0
  m_CorrespondingSourceObject: {fileID: 0}
  m_PrefabInstance: {fileID: 0}
  m_PrefabAsset: {fileID: 0}
  m_GameObject: {fileID: 368512200}
  m_Enabled: 1
  m_CastShadows: 1
  m_ReceiveShadows: 1
  m_DynamicOccludee: 1
  m_MotionVectors: 1
  m_LightProbeUsage: 1
  m_ReflectionProbeUsage: 1
  m_RayTracingMode: 2
  m_RenderingLayerMask: 1
  m_RendererPriority: 0
  m_Materials:
  - {fileID: 10303, guid: 0000000000000000f000000000000000, type: 0}
  m_StaticBatchInfo:
    firstSubMesh: 0
    subMeshCount: 0
  m_StaticBatchRoot: {fileID: 0}
  m_ProbeAnchor: {fileID: 0}
  m_LightProbeVolumeOverride: {fileID: 0}
  m_ScaleInLightmap: 1
  m_ReceiveGI: 1
  m_PreserveUVs: 0
  m_IgnoreNormalsForChartDetection: 0
  m_ImportantGI: 0
  m_StitchLightmapSeams: 1
  m_SelectedEditorRenderState: 3
  m_MinimumChartSize: 4
  m_AutoUVMaxDistance: 0.5
  m_AutoUVMaxAngle: 89
  m_LightmapParameters: {fileID: 0}
  m_SortingLayerID: 0
  m_SortingLayer: 0
  m_SortingOrder: 0
--- !u!33 &368512204
MeshFilter:
  m_ObjectHideFlags: 0
  m_CorrespondingSourceObject: {fileID: 0}
  m_PrefabInstance: {fileID: 0}
  m_PrefabAsset: {fileID: 0}
  m_GameObject: {fileID: 368512200}
  m_Mesh: {fileID: 10206, guid: 0000000000000000e000000000000000, type: 0}
--- !u!1 &698965695
GameObject:
  m_ObjectHideFlags: 0
  m_CorrespondingSourceObject: {fileID: 0}
  m_PrefabInstance: {fileID: 0}
  m_PrefabAsset: {fileID: 0}
  serializedVersion: 6
  m_Component:
  - component: {fileID: 698965696}
  - component: {fileID: 698965699}
  - component: {fileID: 698965698}
  - component: {fileID: 698965697}
  m_Layer: 0
  m_Name: Cube
  m_TagString: Untagged
  m_Icon: {fileID: 0}
  m_NavMeshLayer: 0
  m_StaticEditorFlags: 0
  m_IsActive: 1
--- !u!4 &698965696
Transform:
  m_ObjectHideFlags: 0
  m_CorrespondingSourceObject: {fileID: 0}
  m_PrefabInstance: {fileID: 0}
  m_PrefabAsset: {fileID: 0}
  m_GameObject: {fileID: 698965695}
  m_LocalRotation: {x: -0, y: -0, z: -0, w: 1}
  m_LocalPosition: {x: 5.3899994, y: 0.36, z: -10.24}
  m_LocalScale: {x: 5.1285996, y: 2.8105, z: 5.99845}
  m_Children: []
  m_Father: {fileID: 0}
  m_RootOrder: 5
  m_LocalEulerAnglesHint: {x: 0, y: 0, z: 0}
--- !u!65 &698965697
BoxCollider:
  m_ObjectHideFlags: 0
  m_CorrespondingSourceObject: {fileID: 0}
  m_PrefabInstance: {fileID: 0}
  m_PrefabAsset: {fileID: 0}
  m_GameObject: {fileID: 698965695}
  m_Material: {fileID: 0}
  m_IsTrigger: 0
  m_Enabled: 1
  serializedVersion: 2
  m_Size: {x: 1, y: 1, z: 1}
  m_Center: {x: 0, y: 0, z: 0}
--- !u!23 &698965698
MeshRenderer:
  m_ObjectHideFlags: 0
  m_CorrespondingSourceObject: {fileID: 0}
  m_PrefabInstance: {fileID: 0}
  m_PrefabAsset: {fileID: 0}
  m_GameObject: {fileID: 698965695}
  m_Enabled: 1
  m_CastShadows: 1
  m_ReceiveShadows: 1
  m_DynamicOccludee: 1
  m_MotionVectors: 1
  m_LightProbeUsage: 1
  m_ReflectionProbeUsage: 1
  m_RayTracingMode: 2
  m_RenderingLayerMask: 1
  m_RendererPriority: 0
  m_Materials:
  - {fileID: 2100000, guid: a2ba01895998cd84095e417c680fbab2, type: 2}
  m_StaticBatchInfo:
    firstSubMesh: 0
    subMeshCount: 0
  m_StaticBatchRoot: {fileID: 0}
  m_ProbeAnchor: {fileID: 0}
  m_LightProbeVolumeOverride: {fileID: 0}
  m_ScaleInLightmap: 1
  m_ReceiveGI: 1
  m_PreserveUVs: 0
  m_IgnoreNormalsForChartDetection: 0
  m_ImportantGI: 0
  m_StitchLightmapSeams: 1
  m_SelectedEditorRenderState: 3
  m_MinimumChartSize: 4
  m_AutoUVMaxDistance: 0.5
  m_AutoUVMaxAngle: 89
  m_LightmapParameters: {fileID: 0}
  m_SortingLayerID: 0
  m_SortingLayer: 0
  m_SortingOrder: 0
--- !u!33 &698965699
MeshFilter:
  m_ObjectHideFlags: 0
  m_CorrespondingSourceObject: {fileID: 0}
  m_PrefabInstance: {fileID: 0}
  m_PrefabAsset: {fileID: 0}
  m_GameObject: {fileID: 698965695}
  m_Mesh: {fileID: 10202, guid: 0000000000000000e000000000000000, type: 0}
--- !u!1 &705507993
GameObject:
  m_ObjectHideFlags: 0
  m_CorrespondingSourceObject: {fileID: 0}
  m_PrefabInstance: {fileID: 0}
  m_PrefabAsset: {fileID: 0}
  serializedVersion: 6
  m_Component:
  - component: {fileID: 705507995}
  - component: {fileID: 705507994}
  m_Layer: 0
  m_Name: Directional Light
  m_TagString: Untagged
  m_Icon: {fileID: 0}
  m_NavMeshLayer: 0
  m_StaticEditorFlags: 0
  m_IsActive: 1
--- !u!108 &705507994
Light:
  m_ObjectHideFlags: 0
  m_CorrespondingSourceObject: {fileID: 0}
  m_PrefabInstance: {fileID: 0}
  m_PrefabAsset: {fileID: 0}
  m_GameObject: {fileID: 705507993}
  m_Enabled: 1
  serializedVersion: 10
  m_Type: 1
  m_Shape: 0
  m_Color: {r: 1, g: 0.95686275, b: 0.8392157, a: 1}
  m_Intensity: 1
  m_Range: 10
  m_SpotAngle: 30
  m_InnerSpotAngle: 21.80208
  m_CookieSize: 10
  m_Shadows:
    m_Type: 2
    m_Resolution: -1
    m_CustomResolution: -1
    m_Strength: 1
    m_Bias: 0.05
    m_NormalBias: 0.4
    m_NearPlane: 0.2
    m_CullingMatrixOverride:
      e00: 1
      e01: 0
      e02: 0
      e03: 0
      e10: 0
      e11: 1
      e12: 0
      e13: 0
      e20: 0
      e21: 0
      e22: 1
      e23: 0
      e30: 0
      e31: 0
      e32: 0
      e33: 1
    m_UseCullingMatrixOverride: 0
  m_Cookie: {fileID: 0}
  m_DrawHalo: 0
  m_Flare: {fileID: 0}
  m_RenderMode: 0
  m_CullingMask:
    serializedVersion: 2
    m_Bits: 4294967295
  m_RenderingLayerMask: 1
  m_Lightmapping: 1
  m_LightShadowCasterMode: 0
  m_AreaSize: {x: 1, y: 1}
  m_BounceIntensity: 1
  m_ColorTemperature: 6570
  m_UseColorTemperature: 0
  m_BoundingSphereOverride: {x: 0, y: 0, z: 0, w: 0}
  m_UseBoundingSphereOverride: 0
  m_ShadowRadius: 0
  m_ShadowAngle: 0
--- !u!4 &705507995
Transform:
  m_ObjectHideFlags: 0
  m_CorrespondingSourceObject: {fileID: 0}
  m_PrefabInstance: {fileID: 0}
  m_PrefabAsset: {fileID: 0}
  m_GameObject: {fileID: 705507993}
  m_LocalRotation: {x: 0.40821788, y: -0.23456968, z: 0.10938163, w: 0.8754261}
  m_LocalPosition: {x: 0, y: 3, z: 0}
  m_LocalScale: {x: 1, y: 1, z: 1}
  m_Children: []
  m_Father: {fileID: 0}
  m_RootOrder: 0
  m_LocalEulerAnglesHint: {x: 50, y: -30, z: 0}
--- !u!1 &785059143
GameObject:
  m_ObjectHideFlags: 0
  m_CorrespondingSourceObject: {fileID: 0}
  m_PrefabInstance: {fileID: 0}
  m_PrefabAsset: {fileID: 0}
  serializedVersion: 6
  m_Component:
  - component: {fileID: 785059144}
  - component: {fileID: 785059146}
  - component: {fileID: 785059145}
  - component: {fileID: 785059147}
  - component: {fileID: 785059151}
  - component: {fileID: 785059148}
  - component: {fileID: 785059149}
  - component: {fileID: 785059150}
  - component: {fileID: 785059152}
  - component: {fileID: 785059153}
  - component: {fileID: 785059154}
  m_Layer: 0
  m_Name: FPScontroller
  m_TagString: Untagged
  m_Icon: {fileID: 0}
  m_NavMeshLayer: 0
  m_StaticEditorFlags: 0
  m_IsActive: 1
--- !u!4 &785059144
Transform:
  m_ObjectHideFlags: 0
  m_CorrespondingSourceObject: {fileID: 0}
  m_PrefabInstance: {fileID: 0}
  m_PrefabAsset: {fileID: 0}
  m_GameObject: {fileID: 785059143}
  m_LocalRotation: {x: 0, y: 0, z: 0, w: 1}
  m_LocalPosition: {x: 1.1343818, y: 0.7627293, z: -0.48322225}
  m_LocalScale: {x: 1, y: 1, z: 1}
  m_Children:
  - {fileID: 963194228}
  - {fileID: 1324424878}
  m_Father: {fileID: 0}
  m_RootOrder: 6
  m_LocalEulerAnglesHint: {x: 0, y: 0, z: 0}
--- !u!114 &785059145
MonoBehaviour:
  m_ObjectHideFlags: 0
  m_CorrespondingSourceObject: {fileID: 0}
  m_PrefabInstance: {fileID: 0}
  m_PrefabAsset: {fileID: 0}
  m_GameObject: {fileID: 785059143}
  m_Enabled: 0
  m_EditorHideFlags: 0
  m_Script: {fileID: -57143145, guid: a040fb66244a7f54289914d98ea4ef7d, type: 3}
  m_Name: 
  m_EditorClassIdentifier: 
  _data:
    _json: '{"nest":{"source":"Embed","macro":null,"embed":{"variables":{"collection":{"$content":[],"$version":"A"},"$version":"A"},"controlInputDefinitions":[],"controlOutputDefinitions":[],"valueInputDefinitions":[],"valueOutputDefinitions":[],"title":"TransformMovement","summary":null,"pan":{"x":178.6294,"y":19.77073},"zoom":0.9,"elements":[{"coroutine":false,"defaultValues":{},"position":{"x":-213.0,"y":-182.0},"guid":"e4bac34d-e40f-4fa7-8323-6ea763d7c1d9","$version":"A","$type":"Bolt.Update","$id":"10"},{"chainable":false,"member":{"name":"ClampMagnitude","parameterTypes":["UnityEngine.Vector3","System.Single"],"targetType":"UnityEngine.Vector3","targetTypeName":"UnityEngine.Vector3","$version":"A"},"defaultValues":{"%vector":{"x":0.0,"y":0.0,"z":0.0,"$type":"UnityEngine.Vector3"},"%maxLength":{"$content":1.0,"$type":"System.Single"}},"position":{"x":21.0,"y":-161.0},"guid":"240052cd-d9e1-438b-89bc-b4ed53b3d999","$version":"A","$type":"Bolt.InvokeMember","$id":"12"},{"specifyFallback":false,"kind":"Object","defaultValues":{"name":{"$content":"MoveAxis","$type":"System.String"},"object":null},"position":{"x":-213.0,"y":-28.0},"guid":"bff78973-dcc8-45dc-9f0c-91e211c1aff3","$version":"A","$type":"Bolt.GetVariable","$id":"15"},{"chainable":false,"member":{"name":"Translate","parameterTypes":["UnityEngine.Vector3"],"targetType":"UnityEngine.Transform","targetTypeName":"UnityEngine.Transform","$version":"A"},"defaultValues":{"target":null,"%translation":{"x":0.0,"y":0.0,"z":0.0,"$type":"UnityEngine.Vector3"}},"position":{"x":487.0,"y":-157.0},"guid":"07a69718-60e1-4f7c-843a-c0b1205228a5","$version":"A","$type":"Bolt.InvokeMember","$id":"17"},{"defaultValues":{},"position":{"x":342.0,"y":8.0},"guid":"516532ad-f502-4e1f-a306-78da0dc24d3b","$version":"A","$type":"Bolt.GenericMultiply","$id":"20"},{"defaultValues":{},"position":{"x":198.0,"y":107.0},"guid":"49388525-89b2-4b2d-85a9-cb819acc7495","$version":"A","$type":"Bolt.GenericMultiply","$id":"22"},{"specifyFallback":false,"kind":"Object","defaultValues":{"name":{"$content":"MoveSpeed","$type":"System.String"},"object":null},"position":{"x":-19.0,"y":-14.0},"guid":"de734eda-5de0-4834-b926-43ed911101c8","$version":"A","$type":"Bolt.GetVariable","$id":"24"},{"member":{"name":"deltaTime","parameterTypes":null,"targetType":"UnityEngine.Time","targetTypeName":"UnityEngine.Time","$version":"A"},"defaultValues":{},"position":{"x":-146.0,"y":237.0},"guid":"37bfbb40-9bca-4054-84bc-65e1ec0f0e02","$version":"A","$type":"Bolt.GetMember","$id":"26"},{"sourceUnit":{"$ref":"12"},"sourceKey":"exit","destinationUnit":{"$ref":"17"},"destinationKey":"enter","guid":"7c21251c-f398-4589-8a75-2247e66e1cfc","$type":"Bolt.ControlConnection"},{"sourceUnit":{"$ref":"10"},"sourceKey":"trigger","destinationUnit":{"$ref":"12"},"destinationKey":"enter","guid":"4fc55461-1a91-404f-93db-26a89861328b","$type":"Bolt.ControlConnection"},{"sourceUnit":{"$ref":"15"},"sourceKey":"value","destinationUnit":{"$ref":"12"},"destinationKey":"%vector","guid":"63ae683d-884a-497a-9653-8217a4a0d1f1","$type":"Bolt.ValueConnection"},{"sourceUnit":{"$ref":"20"},"sourceKey":"product","destinationUnit":{"$ref":"17"},"destinationKey":"%translation","guid":"e9cef9be-8a63-442f-8773-650cc03ba53d","$type":"Bolt.ValueConnection"},{"sourceUnit":{"$ref":"22"},"sourceKey":"product","destinationUnit":{"$ref":"20"},"destinationKey":"b","guid":"b32d5fd3-a773-4f94-b6a3-4318cb1cecbf","$type":"Bolt.ValueConnection"},{"sourceUnit":{"$ref":"24"},"sourceKey":"value","destinationUnit":{"$ref":"22"},"destinationKey":"a","guid":"c2050ccf-8e5a-4667-94d8-3f26b48ad342","$type":"Bolt.ValueConnection"},{"sourceUnit":{"$ref":"26"},"sourceKey":"value","destinationUnit":{"$ref":"22"},"destinationKey":"b","guid":"404ab2df-f867-4bdc-8363-81354ae3cd2d","$type":"Bolt.ValueConnection"},{"sourceUnit":{"$ref":"12"},"sourceKey":"result","destinationUnit":{"$ref":"20"},"destinationKey":"a","guid":"d94d296d-8ac8-4c87-bbf3-86e12f707031","$type":"Bolt.ValueConnection"}],"$version":"A"}}}'
    _objectReferences: []
--- !u!114 &785059146
MonoBehaviour:
  m_ObjectHideFlags: 0
  m_CorrespondingSourceObject: {fileID: 0}
  m_PrefabInstance: {fileID: 0}
  m_PrefabAsset: {fileID: 0}
  m_GameObject: {fileID: 785059143}
  m_Enabled: 1
  m_EditorHideFlags: 0
  m_Script: {fileID: -1465209106, guid: c8d0ad23af520fe46aabe2b1fecf6462, type: 3}
  m_Name: 
  m_EditorClassIdentifier: 
  _data:
    _json: '{"declarations":{"collection":{"$content":[{"name":"MoveSpeed","value":{"$content":0.0,"$type":"System.Single"},"$version":"A"},{"name":"MoveAxis","value":{"x":0.0,"y":0.0,"z":0.0,"$type":"UnityEngine.Vector3"},"$version":"A"},{"name":"RotationSpeed","value":{"$content":0.0,"$type":"System.Single"},"$version":"A"},{"name":"RotationAxis","value":{"x":0.0,"y":0.0,"z":0.0,"$type":"UnityEngine.Vector3"},"$version":"A"},{"name":"TranslateSpeed","value":{"$content":5.0,"$type":"System.Single"},"$version":"A"},{"name":"Rot","value":{"$content":30.0,"$type":"System.Single"},"$version":"A"},{"name":"ScaleAxis","value":{"x":1.0,"y":1.0,"z":1.0,"$type":"UnityEngine.Vector3"},"$version":"A"},{"name":"ScaleUnits","value":{"$content":0.0,"$type":"System.Single"},"$version":"A"},{"name":"Walkspeed","value":{"$content":5.0,"$type":"System.Single"},"$version":"A"},{"name":"hRotaionspeed","value":{"$content":100.0,"$type":"System.Single"},"$version":"A"},{"name":"vRotaionspeed","value":{"$content":80.0,"$type":"System.Single"},"$version":"A"}],"$version":"A"},"$version":"A"}}'
    _objectReferences: []
--- !u!114 &785059147
MonoBehaviour:
  m_ObjectHideFlags: 0
  m_CorrespondingSourceObject: {fileID: 0}
  m_PrefabInstance: {fileID: 0}
  m_PrefabAsset: {fileID: 0}
  m_GameObject: {fileID: 785059143}
  m_Enabled: 0
  m_EditorHideFlags: 0
  m_Script: {fileID: -57143145, guid: a040fb66244a7f54289914d98ea4ef7d, type: 3}
  m_Name: 
  m_EditorClassIdentifier: 
  _data:
    _json: '{"nest":{"source":"Embed","macro":null,"embed":{"variables":{"collection":{"$content":[],"$version":"A"},"$version":"A"},"controlInputDefinitions":[],"controlOutputDefinitions":[],"valueInputDefinitions":[],"valueOutputDefinitions":[],"title":"CapsuleRotation","summary":null,"pan":{"x":7.513748,"y":-50.25865},"zoom":0.6999999,"elements":[{"coroutine":false,"defaultValues":{},"position":{"x":-392.0,"y":-248.0},"guid":"75f289d2-bcbe-47ff-a7ed-bbb3d7cfce1a","$version":"A","$type":"Bolt.Update","$id":"10"},{"chainable":false,"member":{"name":"ClampMagnitude","parameterTypes":["UnityEngine.Vector3","System.Single"],"targetType":"UnityEngine.Vector3","targetTypeName":"UnityEngine.Vector3","$version":"A"},"defaultValues":{"%vector":{"x":0.0,"y":0.0,"z":0.0,"$type":"UnityEngine.Vector3"},"%maxLength":{"$content":1.0,"$type":"System.Single"}},"position":{"x":-158.0,"y":-228.0},"guid":"bc676c57-d04d-4f9e-81f9-ea841660884c","$version":"A","$type":"Bolt.InvokeMember","$id":"12"},{"specifyFallback":false,"kind":"Object","defaultValues":{"name":{"$content":"RotationAxis","$type":"System.String"},"object":null},"position":{"x":-392.0,"y":-94.0},"guid":"3f845cd9-c6db-4da0-a8f8-89e96618806e","$version":"A","$type":"Bolt.GetVariable","$id":"15"},{"defaultValues":{},"position":{"x":116.0,"y":-66.0},"guid":"07994220-a913-4cb8-95ff-3742a10d7ed4","$version":"A","$type":"Bolt.GenericMultiply","$id":"17"},{"defaultValues":{},"position":{"x":20.0,"y":40.0},"guid":"7ca7d26d-d908-4861-a234-994006db2644","$version":"A","$type":"Bolt.GenericMultiply","$id":"19"},{"specifyFallback":false,"kind":"Object","defaultValues":{"name":{"$content":"RotationSpeed","$type":"System.String"},"object":null},"position":{"x":-198.0,"y":-80.0},"guid":"06b15b1c-773a-443c-ba4f-02133b64fdd9","$version":"A","$type":"Bolt.GetVariable","$id":"21"},{"member":{"name":"deltaTime","parameterTypes":null,"targetType":"UnityEngine.Time","targetTypeName":"UnityEngine.Time","$version":"A"},"defaultValues":{},"position":{"x":-324.0,"y":170.0},"guid":"29874840-808f-42d0-9e15-f714acf32f98","$version":"A","$type":"Bolt.GetMember","$id":"23"},{"chainable":false,"member":{"name":"Rotate","parameterTypes":["UnityEngine.Vector3"],"targetType":"UnityEngine.Transform","targetTypeName":"UnityEngine.Transform","$version":"A"},"defaultValues":{"target":null,"%eulers":{"x":0.0,"y":0.0,"z":0.0,"$type":"UnityEngine.Vector3"}},"position":{"x":272.0,"y":-231.0},"guid":"65c7294d-764b-47df-8251-f3ac23309ba6","$version":"A","$type":"Bolt.InvokeMember","$id":"26"},{"sourceUnit":{"$ref":"10"},"sourceKey":"trigger","destinationUnit":{"$ref":"12"},"destinationKey":"enter","guid":"82849fb5-608b-4dd3-b17e-28a2f0fd139c","$type":"Bolt.ControlConnection"},{"sourceUnit":{"$ref":"12"},"sourceKey":"exit","destinationUnit":{"$ref":"26"},"destinationKey":"enter","guid":"f05afd63-8d72-4a23-a321-b74453be9157","$type":"Bolt.ControlConnection"},{"sourceUnit":{"$ref":"15"},"sourceKey":"value","destinationUnit":{"$ref":"12"},"destinationKey":"%vector","guid":"cb22c611-a7cc-42a1-be1b-7c6e39e76f51","$type":"Bolt.ValueConnection"},{"sourceUnit":{"$ref":"12"},"sourceKey":"result","destinationUnit":{"$ref":"17"},"destinationKey":"a","guid":"3380b2ca-b62b-4bf0-a9ce-ac3db3b5e706","$type":"Bolt.ValueConnection"},{"sourceUnit":{"$ref":"19"},"sourceKey":"product","destinationUnit":{"$ref":"17"},"destinationKey":"b","guid":"76f512d6-48d2-494b-a451-3e1a703812e2","$type":"Bolt.ValueConnection"},{"sourceUnit":{"$ref":"21"},"sourceKey":"value","destinationUnit":{"$ref":"19"},"destinationKey":"a","guid":"669fd8b3-cfe9-4468-b787-e490d87d7ff1","$type":"Bolt.ValueConnection"},{"sourceUnit":{"$ref":"23"},"sourceKey":"value","destinationUnit":{"$ref":"19"},"destinationKey":"b","guid":"b6902482-0785-42c0-b3da-7f32b76e2eef","$type":"Bolt.ValueConnection"},{"sourceUnit":{"$ref":"17"},"sourceKey":"product","destinationUnit":{"$ref":"26"},"destinationKey":"%eulers","guid":"fea7ef7d-507f-4729-a0b5-733aab07a0f1","$type":"Bolt.ValueConnection"}],"$version":"A"}}}'
    _objectReferences: []
--- !u!114 &785059148
MonoBehaviour:
  m_ObjectHideFlags: 0
  m_CorrespondingSourceObject: {fileID: 0}
  m_PrefabInstance: {fileID: 0}
  m_PrefabAsset: {fileID: 0}
  m_GameObject: {fileID: 785059143}
  m_Enabled: 0
  m_EditorHideFlags: 0
  m_Script: {fileID: -57143145, guid: a040fb66244a7f54289914d98ea4ef7d, type: 3}
  m_Name: 
  m_EditorClassIdentifier: 
  _data:
    _json: '{"nest":{"source":"Embed","macro":null,"embed":{"variables":{"collection":{"$content":[],"$version":"A"},"$version":"A"},"controlInputDefinitions":[],"controlOutputDefinitions":[],"valueInputDefinitions":[],"valueOutputDefinitions":[],"title":"PlayerTankController","summary":null,"pan":{"x":253.4771,"y":320.5563},"zoom":0.7999998,"elements":[{"defaultValues":{},"position":{"x":192.0,"y":223.0},"guid":"1e36eceb-a16e-42cc-bcfd-e0916f72933e","$version":"A","$type":"Bolt.GenericMultiply","$id":"10"},{"defaultValues":{},"position":{"x":645.0,"y":494.0},"guid":"2e768711-8908-45a9-b3a2-e316ba205c7e","$version":"A","$type":"Bolt.GenericMultiply","$id":"12"},{"chainable":false,"member":{"name":"GetAxis","parameterTypes":["System.String"],"targetType":"UnityEngine.Input","targetTypeName":"UnityEngine.Input","$version":"A"},"defaultValues":{"%axisName":{"$content":"Vertical","$type":"System.String"}},"position":{"x":-345.0,"y":153.0},"guid":"df3cdf90-cd06-4c9f-a0bd-972f3ce5f555","$version":"A","$type":"Bolt.InvokeMember","$id":"14"},{"defaultValues":{},"position":{"x":-70.0,"y":155.0},"guid":"0eb09ccd-a960-47a3-a0ad-277f76196417","$version":"A","$type":"Bolt.GenericMultiply","$id":"17"},{"specifyFallback":false,"kind":"Object","defaultValues":{"name":{"$content":"TranslateSpeed","$type":"System.String"},"object":null},"position":{"x":-321.0,"y":289.0},"guid":"f6190498-e828-4271-93ae-a7f494080788","$version":"A","$type":"Bolt.GetVariable","$id":"19"},{"member":{"name":"deltaTime","parameterTypes":null,"targetType":"UnityEngine.Time","targetTypeName":"UnityEngine.Time","$version":"A"},"defaultValues":{},"position":{"x":-77.0,"y":340.0},"guid":"e780c0df-f04b-40d8-bf88-251f32da7372","$version":"A","$type":"Bolt.GetMember","$id":"21"},{"chainable":false,"member":{"name":"Translate","parameterTypes":["System.Single","System.Single","System.Single"],"targetType":"UnityEngine.Transform","targetTypeName":"UnityEngine.Transform","$version":"A"},"defaultValues":{"target":null,"%x":{"$content":0.0,"$type":"System.Single"},"%y":{"$content":0.0,"$type":"System.Single"},"%z":{"$content":0.0,"$type":"System.Single"}},"position":{"x":380.0,"y":-14.0},"guid":"fd41a476-c0de-4724-84e3-6d28f7c48d96","$version":"A","$type":"Bolt.InvokeMember","$id":"24"},{"member":{"name":"deltaTime","parameterTypes":null,"targetType":"UnityEngine.Time","targetTypeName":"UnityEngine.Time","$version":"A"},"defaultValues":{},"position":{"x":376.0,"y":611.0},"guid":"8e4a26e1-7136-40c7-8f31-31e7afb05da5","$version":"A","$type":"Bolt.GetMember","$id":"27"},{"chainable":false,"member":{"name":"Rotate","parameterTypes":["System.Single","System.Single","System.Single"],"targetType":"UnityEngine.Transform","targetTypeName":"UnityEngine.Transform","$version":"A"},"defaultValues":{"target":null,"%xAngle":{"$content":0.0,"$type":"System.Single"},"%yAngle":{"$content":0.0,"$type":"System.Single"},"%zAngle":{"$content":0.0,"$type":"System.Single"}},"position":{"x":828.0,"y":124.0},"guid":"cc47ea70-fa9d-4a84-b211-12ad9ed8c66a","$version":"A","$type":"Bolt.InvokeMember","$id":"30"},{"chainable":false,"member":{"name":"GetAxis","parameterTypes":["System.String"],"targetType":"UnityEngine.Input","targetTypeName":"UnityEngine.Input","$version":"A"},"defaultValues":{"%axisName":{"$content":"Horizontal","$type":"System.String"}},"position":{"x":183.0,"y":445.0},"guid":"1728ee84-440f-4630-9c7b-ac55a6f0edad","$version":"A","$type":"Bolt.InvokeMember","$id":"33"},{"defaultValues":{},"position":{"x":458.0,"y":447.0},"guid":"606bcbbb-5658-42fd-82b5-524db944241d","$version":"A","$type":"Bolt.GenericMultiply","$id":"36"},{"specifyFallback":false,"kind":"Object","defaultValues":{"name":{"$content":"Rot","$type":"System.String"},"object":null},"position":{"x":207.0,"y":581.0},"guid":"e0ec8e28-35ef-4268-bec9-d464ca869cd5","$version":"A","$type":"Bolt.GetVariable","$id":"38"},{"coroutine":false,"defaultValues":{},"position":{"x":-208.0,"y":6.0},"guid":"5b5bc8dc-f23d-4ee5-8755-863294d3a2ee","$version":"A","$type":"Bolt.Update","$id":"40"},{"sourceUnit":{"$ref":"40"},"sourceKey":"trigger","destinationUnit":{"$ref":"24"},"destinationKey":"enter","guid":"be0a6f25-c9b2-4325-a266-5136f5002e8d","$type":"Bolt.ControlConnection"},{"sourceUnit":{"$ref":"24"},"sourceKey":"exit","destinationUnit":{"$ref":"30"},"destinationKey":"enter","guid":"22202356-c802-4c51-abba-9468b81f780c","$type":"Bolt.ControlConnection"},{"sourceUnit":{"$ref":"38"},"sourceKey":"value","destinationUnit":{"$ref":"36"},"destinationKey":"b","guid":"4dbca9cc-51a6-4f96-803e-04fe796a9e44","$type":"Bolt.ValueConnection"},{"sourceUnit":{"$ref":"10"},"sourceKey":"product","destinationUnit":{"$ref":"24"},"destinationKey":"%z","guid":"345957fa-42d5-4af2-9f81-b8df5e6034c1","$type":"Bolt.ValueConnection"},{"sourceUnit":{"$ref":"21"},"sourceKey":"value","destinationUnit":{"$ref":"10"},"destinationKey":"b","guid":"e30fb208-02b2-4d99-bee2-c98456a3ef70","$type":"Bolt.ValueConnection"},{"sourceUnit":{"$ref":"27"},"sourceKey":"value","destinationUnit":{"$ref":"12"},"destinationKey":"b","guid":"3bea1231-b921-4c2b-8fc4-e2b8c5754c43","$type":"Bolt.ValueConnection"},{"sourceUnit":{"$ref":"17"},"sourceKey":"product","destinationUnit":{"$ref":"10"},"destinationKey":"a","guid":"31492d0e-69c2-4926-bb76-cdd149a9d59c","$type":"Bolt.ValueConnection"},{"sourceUnit":{"$ref":"33"},"sourceKey":"result","destinationUnit":{"$ref":"36"},"destinationKey":"a","guid":"a5bbc83a-607e-4582-8109-663c0ffeca1f","$type":"Bolt.ValueConnection"},{"sourceUnit":{"$ref":"19"},"sourceKey":"value","destinationUnit":{"$ref":"17"},"destinationKey":"b","guid":"af7c65d1-eceb-47d9-aad1-856c8323f7e9","$type":"Bolt.ValueConnection"},{"sourceUnit":{"$ref":"14"},"sourceKey":"result","destinationUnit":{"$ref":"17"},"destinationKey":"a","guid":"147c137f-f241-4038-94a2-045329c535b0","$type":"Bolt.ValueConnection"},{"sourceUnit":{"$ref":"36"},"sourceKey":"product","destinationUnit":{"$ref":"12"},"destinationKey":"a","guid":"67639b0b-d677-4d71-9e8e-5af75b3a89df","$type":"Bolt.ValueConnection"},{"sourceUnit":{"$ref":"12"},"sourceKey":"product","destinationUnit":{"$ref":"30"},"destinationKey":"%yAngle","guid":"0477bdff-1d09-4026-9601-5735be0f14ec","$type":"Bolt.ValueConnection"}],"$version":"A"}}}'
    _objectReferences: []
--- !u!114 &785059149
MonoBehaviour:
  m_ObjectHideFlags: 0
  m_CorrespondingSourceObject: {fileID: 0}
  m_PrefabInstance: {fileID: 0}
  m_PrefabAsset: {fileID: 0}
  m_GameObject: {fileID: 785059143}
  m_Enabled: 0
  m_EditorHideFlags: 0
  m_Script: {fileID: 11500000, guid: fd50d470c3e86a94f983d2b79c72c3c0, type: 3}
  m_Name: 
  m_EditorClassIdentifier: 
--- !u!114 &785059150
MonoBehaviour:
  m_ObjectHideFlags: 0
  m_CorrespondingSourceObject: {fileID: 0}
  m_PrefabInstance: {fileID: 0}
  m_PrefabAsset: {fileID: 0}
  m_GameObject: {fileID: 785059143}
  m_Enabled: 0
  m_EditorHideFlags: 0
  m_Script: {fileID: 11500000, guid: c8cd6e224392f3448a7e5bbe7790e383, type: 3}
  m_Name: 
  m_EditorClassIdentifier: 
  axes: {x: 0, y: 0, z: 0}
  scaleUnits: 2
--- !u!114 &785059151
MonoBehaviour:
  m_ObjectHideFlags: 0
  m_CorrespondingSourceObject: {fileID: 0}
  m_PrefabInstance: {fileID: 0}
  m_PrefabAsset: {fileID: 0}
  m_GameObject: {fileID: 785059143}
  m_Enabled: 0
  m_EditorHideFlags: 0
  m_Script: {fileID: -57143145, guid: a040fb66244a7f54289914d98ea4ef7d, type: 3}
  m_Name: 
  m_EditorClassIdentifier: 
  _data:
    _json: '{"nest":{"source":"Embed","macro":null,"embed":{"variables":{"collection":{"$content":[],"$version":"A"},"$version":"A"},"controlInputDefinitions":[],"controlOutputDefinitions":[],"valueInputDefinitions":[],"valueOutputDefinitions":[],"title":"CapsuleScaling","summary":null,"pan":{"x":455.1582,"y":23.10175},"zoom":0.95,"elements":[{"coroutine":false,"defaultValues":{},"position":{"x":-253.0,"y":-232.0},"guid":"b1911387-6dd4-4fee-9134-4e4babab862d","$version":"A","$type":"Bolt.Update","$id":"10"},{"specifyFallback":false,"kind":"Object","defaultValues":{"name":{"$content":"ScaleAxis","$type":"System.String"},"object":null},"position":{"x":-254.0,"y":-106.0},"guid":"278f6148-f44c-453d-b2cd-608c60e75132","$version":"A","$type":"Bolt.GetVariable","$id":"12"},{"specifyFallback":false,"kind":"Object","defaultValues":{"name":{"$content":"ScaleUnits","$type":"System.String"},"object":null},"position":{"x":-257.0,"y":40.0},"guid":"f10b9038-d360-46ab-8e34-8d3d6a9fb3de","$version":"A","$type":"Bolt.GetVariable","$id":"14"},{"chainable":false,"member":{"name":"ClampMagnitude","parameterTypes":["UnityEngine.Vector3","System.Single"],"targetType":"UnityEngine.Vector3","targetTypeName":"UnityEngine.Vector3","$version":"A"},"defaultValues":{"%vector":{"x":0.0,"y":0.0,"z":0.0,"$type":"UnityEngine.Vector3"},"%maxLength":{"$content":0.0,"$type":"System.Single"}},"position":{"x":174.0,"y":-242.0},"guid":"3f4c9873-f850-4577-8493-83284511d704","$version":"A","$type":"Bolt.InvokeMember","$id":"16"},{"member":{"name":"deltaTime","parameterTypes":null,"targetType":"UnityEngine.Time","targetTypeName":"UnityEngine.Time","$version":"A"},"defaultValues":{},"position":{"x":-203.0,"y":169.0},"guid":"fd33d0d4-f74c-4bbe-837a-8af0d40c437c","$version":"A","$type":"Bolt.GetMember","$id":"19"},{"defaultValues":{},"position":{"x":133.0,"y":43.0},"guid":"ba2be6eb-6a2f-4fc6-ab2a-02e8a79cc992","$version":"A","$type":"Bolt.GenericMultiply","$id":"22"},{"defaultValues":{},"position":{"x":384.0,"y":25.0},"guid":"e55a2046-846f-42c6-b8ed-d117f0b13fa9","$version":"A","$type":"Bolt.GenericMultiply","$id":"24"},{"defaultValues":{},"position":{"x":744.0,"y":5.0},"guid":"3b571eb7-8866-4646-9d01-d096092f5a58","$version":"A","$type":"Bolt.GenericAdd","$id":"26"},{"chainable":false,"member":{"name":"localScale","parameterTypes":null,"targetType":"UnityEngine.Transform","targetTypeName":"UnityEngine.Transform","$version":"A"},"defaultValues":{"target":null,"input":{"x":0.0,"y":0.0,"z":0.0,"$type":"UnityEngine.Vector3"}},"position":{"x":888.0,"y":-225.0},"guid":"0f2fcaea-f8c5-4e42-a367-927598333a6d","$version":"A","$type":"Bolt.SetMember","$id":"28"},{"member":{"name":"localScale","parameterTypes":null,"targetType":"UnityEngine.Transform","targetTypeName":"UnityEngine.Transform","$version":"A"},"defaultValues":{"target":null},"position":{"x":532.0,"y":-50.0},"guid":"c91b17d6-f4fa-4ade-8b99-cb822318ee91","$version":"A","$type":"Bolt.GetMember","$id":"31"},{"sourceUnit":{"$ref":"10"},"sourceKey":"trigger","destinationUnit":{"$ref":"16"},"destinationKey":"enter","guid":"12bc288c-7559-4522-976b-de532ddd7541","$type":"Bolt.ControlConnection"},{"sourceUnit":{"$ref":"16"},"sourceKey":"exit","destinationUnit":{"$ref":"28"},"destinationKey":"assign","guid":"3f410104-d42c-4da5-85fc-75dd8ac6989c","$type":"Bolt.ControlConnection"},{"sourceUnit":{"$ref":"22"},"sourceKey":"product","destinationUnit":{"$ref":"24"},"destinationKey":"b","guid":"32e58455-a990-4f73-bced-3d97ef63cd8c","$type":"Bolt.ValueConnection"},{"sourceUnit":{"$ref":"19"},"sourceKey":"value","destinationUnit":{"$ref":"22"},"destinationKey":"b","guid":"e65b3003-27e7-4737-981e-e3582a1f18b1","$type":"Bolt.ValueConnection"},{"sourceUnit":{"$ref":"14"},"sourceKey":"value","destinationUnit":{"$ref":"22"},"destinationKey":"a","guid":"9071c1c1-9434-4a68-a227-9082419d423a","$type":"Bolt.ValueConnection"},{"sourceUnit":{"$ref":"12"},"sourceKey":"value","destinationUnit":{"$ref":"16"},"destinationKey":"%vector","guid":"f41cefae-c7e0-46c1-b4a6-e239611802aa","$type":"Bolt.ValueConnection"},{"sourceUnit":{"$ref":"31"},"sourceKey":"value","destinationUnit":{"$ref":"26"},"destinationKey":"a","guid":"92476d73-2dfa-4d93-99e5-1f54f8f8cd07","$type":"Bolt.ValueConnection"},{"sourceUnit":{"$ref":"24"},"sourceKey":"product","destinationUnit":{"$ref":"26"},"destinationKey":"b","guid":"39151777-ecb8-4423-8118-4ba3dce17194","$type":"Bolt.ValueConnection"},{"sourceUnit":{"$ref":"16"},"sourceKey":"result","destinationUnit":{"$ref":"24"},"destinationKey":"a","guid":"e5c267c1-4f7a-4500-8904-cef5c590faec","$type":"Bolt.ValueConnection"},{"sourceUnit":{"$ref":"26"},"sourceKey":"sum","destinationUnit":{"$ref":"28"},"destinationKey":"input","guid":"b2f261fc-25b4-4f43-92ad-ba7fe8738e2e","$type":"Bolt.ValueConnection"}],"$version":"A"}}}'
    _objectReferences: []
--- !u!114 &785059152
MonoBehaviour:
  m_ObjectHideFlags: 0
  m_CorrespondingSourceObject: {fileID: 0}
  m_PrefabInstance: {fileID: 0}
  m_PrefabAsset: {fileID: 0}
  m_GameObject: {fileID: 785059143}
  m_Enabled: 0
  m_EditorHideFlags: 0
  m_Script: {fileID: 11500000, guid: 3389b75fd0c57b34f8d5153cd7da216b, type: 3}
  m_Name: 
  m_EditorClassIdentifier: 
  cam: {fileID: 963194225}
  walkSpeed: 5
  hRotationSpeed: 100
  vRotationSpeed: 80
--- !u!114 &785059153
MonoBehaviour:
  m_ObjectHideFlags: 0
  m_CorrespondingSourceObject: {fileID: 0}
  m_PrefabInstance: {fileID: 0}
  m_PrefabAsset: {fileID: 0}
  m_GameObject: {fileID: 785059143}
  m_Enabled: 0
  m_EditorHideFlags: 0
  m_Script: {fileID: 11500000, guid: 12129c6903399ab41ba4866422d8f146, type: 3}
  m_Name: 
  m_EditorClassIdentifier: 
  speed: 4
  angularSpeed: 30
--- !u!114 &785059154
MonoBehaviour:
  m_ObjectHideFlags: 0
  m_CorrespondingSourceObject: {fileID: 0}
  m_PrefabInstance: {fileID: 0}
  m_PrefabAsset: {fileID: 0}
  m_GameObject: {fileID: 785059143}
  m_Enabled: 1
  m_EditorHideFlags: 0
  m_Script: {fileID: -57143145, guid: a040fb66244a7f54289914d98ea4ef7d, type: 3}
  m_Name: 
  m_EditorClassIdentifier: 
  _data:
    _json: '{"nest":{"source":"Embed","macro":null,"embed":{"variables":{"collection":{"$content":[],"$version":"A"},"$version":"A"},"controlInputDefinitions":[],"controlOutputDefinitions":[],"valueInputDefinitions":[],"valueOutputDefinitions":[],"title":"Player
      controller","summary":null,"pan":{"x":411.1653,"y":1135.938},"zoom":0.55,"elements":[{"coroutine":false,"defaultValues":{},"position":{"x":-204.0,"y":-402.0},"guid":"d2ef1687-e81e-4c38-ac57-a8f637b831db","$version":"A","$type":"Bolt.Start","$id":"10"},{"specifyFallback":false,"kind":"Object","defaultValues":{"name":{"$content":"hRotaionspeed","$type":"System.String"},"object":null},"position":{"x":-144.0,"y":1278.0},"guid":"503b258a-6401-4a65-b0ae-ddeca8d977ae","$version":"A","$type":"Bolt.GetVariable","$id":"12"},{"defaultValues":{},"position":{"x":186.0,"y":1238.0},"guid":"8e406006-58fc-4e9a-9f03-4dd90f9198c8","$version":"A","$type":"Bolt.GenericMultiply","$id":"14"},{"defaultValues":{},"position":{"x":481.0,"y":1280.0},"guid":"b117bd11-2ad9-44fa-b4c6-3eb0f9507055","$version":"A","$type":"Bolt.GenericMultiply","$id":"16"},{"type":"System.Single","value":{"$content":-1.0,"$type":"System.Single"},"defaultValues":{},"position":{"x":461.0,"y":1117.0},"guid":"43c11564-f52a-4978-9489-c908e20fd9be","$version":"A","$type":"Bolt.Literal","$id":"18"},{"defaultValues":{},"position":{"x":595.0,"y":1020.0},"guid":"d80d2a31-592f-40f5-9dec-4c9398c20179","$version":"A","$type":"Bolt.GenericMultiply","$id":"20"},{"member":{"name":"deltaTime","parameterTypes":null,"targetType":"UnityEngine.Time","targetTypeName":"UnityEngine.Time","$version":"A"},"defaultValues":{},"position":{"x":67.0,"y":984.0},"guid":"3c31657a-f9aa-4ac4-b6c3-b5be4e997986","$version":"A","$type":"Bolt.GetMember","$id":"22"},{"defaultValues":{},"position":{"x":398.0,"y":923.0},"guid":"5a86d81a-90c7-43d7-ab77-394abd1825e4","$version":"A","$type":"Bolt.GenericMultiply","$id":"25"},{"defaultValues":{},"position":{"x":106.0,"y":837.0},"guid":"fe8c394d-cc7d-48a6-a9d3-5136addd1a72","$version":"A","$type":"Bolt.GenericMultiply","$id":"27"},{"specifyFallback":false,"kind":"Object","defaultValues":{"name":{"$content":"vRotaionspeed","$type":"System.String"},"object":null},"position":{"x":-134.0,"y":879.0},"guid":"3b242455-f8cc-46f2-a7d3-0318d3aec415","$version":"A","$type":"Bolt.GetVariable","$id":"29"},{"chainable":false,"member":{"name":"GetAxis","parameterTypes":["System.String"],"targetType":"UnityEngine.Input","targetTypeName":"UnityEngine.Input","$version":"A"},"defaultValues":{"%axisName":{"$content":"Mouse
      Y","$type":"System.String"}},"position":{"x":-133.0,"y":763.0},"guid":"f6ab06ad-82a4-47fd-811b-6a737b6d4637","$version":"A","$type":"Bolt.InvokeMember","$id":"31"},{"chainable":false,"member":{"name":"Rotate","parameterTypes":["System.Single","System.Single","System.Single"],"targetType":"UnityEngine.Transform","targetTypeName":"UnityEngine.Transform","$version":"A"},"defaultValues":{"target":null,"%xAngle":{"$content":0.0,"$type":"System.Single"},"%yAngle":{"$content":0.0,"$type":"System.Single"},"%zAngle":{"$content":0.0,"$type":"System.Single"}},"position":{"x":1004.0,"y":1197.0},"guid":"4c12daf9-d712-4790-8d67-7571298e2cfd","$version":"A","$type":"Bolt.InvokeMember","$id":"34"},{"chainable":false,"member":{"name":"Rotate","parameterTypes":["System.Single","System.Single","System.Single"],"targetType":"UnityEngine.Transform","targetTypeName":"UnityEngine.Transform","$version":"A"},"defaultValues":{"target":{"$content":0,"$type":"UnityEngine.Object"},"%xAngle":{"$content":0.0,"$type":"System.Single"},"%yAngle":{"$content":0.0,"$type":"System.Single"},"%zAngle":{"$content":0.0,"$type":"System.Single"}},"position":{"x":1019.0,"y":906.0},"guid":"04cf955c-b143-4bf3-8ea6-7422241f0fac","$version":"A","$type":"Bolt.InvokeMember","$id":"37"},{"coroutine":false,"defaultValues":{},"position":{"x":736.0,"y":1166.0},"guid":"1a0d7239-6f91-46e0-83bd-311a3aceafcd","$version":"A","$type":"Bolt.Update","$id":"40"},{"coroutine":false,"defaultValues":{},"position":{"x":674.0,"y":738.0},"guid":"46237796-67c1-4fbc-8c24-682957973cd3","$version":"A","$type":"Bolt.Start","$id":"42"},{"defaultValues":{},"position":{"x":-51.0,"y":69.0},"guid":"a8f829e2-66d0-4eff-94f8-e24757f3f380","$version":"A","$type":"Bolt.GenericMultiply","$id":"44"},{"chainable":false,"member":{"name":"GetAxis","parameterTypes":["System.String"],"targetType":"UnityEngine.Input","targetTypeName":"UnityEngine.Input","$version":"A"},"defaultValues":{"%axisName":{"$content":"Mouse
      Y","$type":"System.String"}},"position":{"x":-148.0,"y":1147.0},"guid":"904d48c0-01da-446c-8d07-d6a6454e60bc","$version":"A","$type":"Bolt.InvokeMember","$id":"46"},{"chainable":false,"member":{"name":"lockState","parameterTypes":null,"targetType":"UnityEngine.Cursor","targetTypeName":"UnityEngine.Cursor","$version":"A"},"defaultValues":{"input":{"$content":"None","$type":"UnityEngine.CursorLockMode"}},"position":{"x":269.0,"y":-424.0},"guid":"d36ba33e-ea6b-4964-bf4f-22afb1d4f489","$version":"A","$type":"Bolt.SetMember","$id":"49"},{"specifyFallback":false,"kind":"Object","defaultValues":{"name":{"$content":"Rot","$type":"System.String"},"object":null},"position":{"x":226.0,"y":495.0},"guid":"7dd66075-b793-4b40-93bd-fafe054ed062","$version":"A","$type":"Bolt.GetVariable","$id":"52"},{"defaultValues":{},"position":{"x":477.0,"y":361.0},"guid":"a1f8c775-1ef1-47ed-8873-77fe2986f3b9","$version":"A","$type":"Bolt.GenericMultiply","$id":"54"},{"chainable":false,"member":{"name":"GetAxis","parameterTypes":["System.String"],"targetType":"UnityEngine.Input","targetTypeName":"UnityEngine.Input","$version":"A"},"defaultValues":{"%axisName":{"$content":"Horizontal","$type":"System.String"}},"position":{"x":202.0,"y":359.0},"guid":"2f9b9e9c-3eab-4bf5-b1fd-c11062910b27","$version":"A","$type":"Bolt.InvokeMember","$id":"56"},{"chainable":false,"member":{"name":"Rotate","parameterTypes":["System.Single","System.Single","System.Single"],"targetType":"UnityEngine.Transform","targetTypeName":"UnityEngine.Transform","$version":"A"},"defaultValues":{"target":null,"%xAngle":{"$content":0.0,"$type":"System.Single"},"%yAngle":{"$content":0.0,"$type":"System.Single"},"%zAngle":{"$content":0.0,"$type":"System.Single"}},"position":{"x":847.0,"y":38.0},"guid":"4af3d192-0e5f-4a43-8498-d887713cd7b9","$version":"A","$type":"Bolt.InvokeMember","$id":"59"},{"chainable":false,"member":{"name":"visible","parameterTypes":null,"targetType":"UnityEngine.Cursor","targetTypeName":"UnityEngine.Cursor","$version":"A"},"defaultValues":{"input":{"$content":false,"$type":"System.Boolean"}},"position":{"x":-12.0,"y":-431.0},"guid":"dcb2b3e4-dfad-4d5b-9bf6-0dd4de9162d2","$version":"A","$type":"Bolt.SetMember","$id":"62"},{"chainable":false,"member":{"name":"Translate","parameterTypes":["System.Single","System.Single","System.Single"],"targetType":"UnityEngine.Transform","targetTypeName":"UnityEngine.Transform","$version":"A"},"defaultValues":{"target":null,"%x":{"$content":0.0,"$type":"System.Single"},"%y":{"$content":0.0,"$type":"System.Single"},"%z":{"$content":0.0,"$type":"System.Single"}},"position":{"x":399.0,"y":-100.0},"guid":"611582cb-6f0a-4551-8554-f4a3d2bb20a9","$version":"A","$type":"Bolt.InvokeMember","$id":"65"},{"member":{"name":"deltaTime","parameterTypes":null,"targetType":"UnityEngine.Time","targetTypeName":"UnityEngine.Time","$version":"A"},"defaultValues":{},"position":{"x":-58.0,"y":254.0},"guid":"2675314f-8192-47ab-8de9-1ee4a112946a","$version":"A","$type":"Bolt.GetMember","$id":"68"},{"member":{"name":"deltaTime","parameterTypes":null,"targetType":"UnityEngine.Time","targetTypeName":"UnityEngine.Time","$version":"A"},"defaultValues":{},"position":{"x":395.0,"y":525.0},"guid":"f529a330-477f-4e4b-832b-d3176fa68fb6","$version":"A","$type":"Bolt.GetMember","$id":"71"},{"coroutine":false,"defaultValues":{},"position":{"x":-189.0,"y":-80.0},"guid":"945a3ad4-0023-4707-b602-079ee2dc3428","$version":"A","$type":"Bolt.Update","$id":"74"},{"chainable":false,"member":{"name":"GetAxis","parameterTypes":["System.String"],"targetType":"UnityEngine.Input","targetTypeName":"UnityEngine.Input","$version":"A"},"defaultValues":{"%axisName":{"$content":"Vertical","$type":"System.String"}},"position":{"x":-326.0,"y":67.0},"guid":"15c55a8c-1a24-498c-a461-64bd4dcf5a78","$version":"A","$type":"Bolt.InvokeMember","$id":"76"},{"defaultValues":{},"position":{"x":664.0,"y":408.0},"guid":"71da759a-4f36-4bf5-876f-0e8cd7d201bb","$version":"A","$type":"Bolt.GenericMultiply","$id":"79"},{"defaultValues":{},"position":{"x":211.0,"y":137.0},"guid":"f37410a2-d9bd-406f-aaed-3a4e0b84f2ba","$version":"A","$type":"Bolt.GenericMultiply","$id":"81"},{"chainable":false,"member":{"name":"SetActive","parameterTypes":["System.Boolean"],"targetType":"UnityEngine.GameObject","targetTypeName":"UnityEngine.GameObject","$version":"A"},"defaultValues":{"target":null,"%value":{"$content":false,"$type":"System.Boolean"}},"position":{"x":752.0,"y":-414.0},"guid":"9148546c-9842-4786-80d7-e838d9fb61a1","$version":"A","$type":"Bolt.InvokeMember","$id":"83"},{"chainable":false,"member":{"name":"Find","parameterTypes":["System.String"],"targetType":"UnityEngine.GameObject","targetTypeName":"UnityEngine.GameObject","$version":"A"},"defaultValues":{"%name":{"$content":"Capsule","$type":"System.String"}},"position":{"x":513.0,"y":-418.0},"guid":"6209d7ea-3fb1-4aa6-ba34-28cc9a74950a","$version":"A","$type":"Bolt.InvokeMember","$id":"86"},{"specifyFallback":false,"kind":"Object","defaultValues":{"name":{"$content":"TranslateSpeed","$type":"System.String"},"object":null},"position":{"x":-302.0,"y":203.0},"guid":"a088ca17-9915-4014-ab9f-449150e1c32e","$version":"A","$type":"Bolt.GetVariable","$id":"89"},{"sourceUnit":{"$ref":"40"},"sourceKey":"trigger","destinationUnit":{"$ref":"34"},"destinationKey":"enter","guid":"a0c27e59-d1d4-4182-aa11-969e6146d17a","$type":"Bolt.ControlConnection"},{"sourceUnit":{"$ref":"42"},"sourceKey":"trigger","destinationUnit":{"$ref":"37"},"destinationKey":"enter","guid":"a8711628-ae2c-423d-b2b8-09363b5ea4ed","$type":"Bolt.ControlConnection"},{"sourceUnit":{"$ref":"10"},"sourceKey":"trigger","destinationUnit":{"$ref":"62"},"destinationKey":"assign","guid":"b7c11060-7262-4a4a-92c5-186c4fd33960","$type":"Bolt.ControlConnection"},{"sourceUnit":{"$ref":"62"},"sourceKey":"assigned","destinationUnit":{"$ref":"49"},"destinationKey":"assign","guid":"ebd56560-51a8-475e-bcc5-b94f5aedecf5","$type":"Bolt.ControlConnection"},{"sourceUnit":{"$ref":"49"},"sourceKey":"assigned","destinationUnit":{"$ref":"86"},"destinationKey":"enter","guid":"d7f9c290-fcd4-4ce0-bce5-2cfa41a70b01","$type":"Bolt.ControlConnection"},{"sourceUnit":{"$ref":"86"},"sourceKey":"exit","destinationUnit":{"$ref":"83"},"destinationKey":"enter","guid":"5c5edf96-e650-4727-b781-d87c367ded02","$type":"Bolt.ControlConnection"},{"sourceUnit":{"$ref":"65"},"sourceKey":"exit","destinationUnit":{"$ref":"59"},"destinationKey":"enter","guid":"4cfb3be5-f028-476f-884d-9fba90b3a730","$type":"Bolt.ControlConnection"},{"sourceUnit":{"$ref":"74"},"sourceKey":"trigger","destinationUnit":{"$ref":"65"},"destinationKey":"enter","guid":"5117636a-7093-43d6-801d-e9e52445b3aa","$type":"Bolt.ControlConnection"},{"sourceUnit":{"$ref":"44"},"sourceKey":"product","destinationUnit":{"$ref":"81"},"destinationKey":"a","guid":"1ed8434d-2a01-4669-825e-7272667d63ce","$type":"Bolt.ValueConnection"},{"sourceUnit":{"$ref":"52"},"sourceKey":"value","destinationUnit":{"$ref":"54"},"destinationKey":"b","guid":"88c1942c-f56e-4861-b2bc-a061a6f8c8a4","$type":"Bolt.ValueConnection"},{"sourceUnit":{"$ref":"31"},"sourceKey":"result","destinationUnit":{"$ref":"27"},"destinationKey":"a","guid":"d057d0ce-e418-4812-8063-13c00877075f","$type":"Bolt.ValueConnection"},{"sourceUnit":{"$ref":"29"},"sourceKey":"value","destinationUnit":{"$ref":"27"},"destinationKey":"b","guid":"0e4cdd66-c7cc-498b-be0c-73f1f2c44500","$type":"Bolt.ValueConnection"},{"sourceUnit":{"$ref":"27"},"sourceKey":"product","destinationUnit":{"$ref":"25"},"destinationKey":"a","guid":"65fc746f-12a7-49fa-ad95-88dff75fc04c","$type":"Bolt.ValueConnection"},{"sourceUnit":{"$ref":"14"},"sourceKey":"product","destinationUnit":{"$ref":"16"},"destinationKey":"b","guid":"6d630f18-4951-4e2a-be8b-9ee8bd545c7a","$type":"Bolt.ValueConnection"},{"sourceUnit":{"$ref":"25"},"sourceKey":"product","destinationUnit":{"$ref":"20"},"destinationKey":"a","guid":"3fedd325-3f47-48a1-b34c-168e8471ffb9","$type":"Bolt.ValueConnection"},{"sourceUnit":{"$ref":"18"},"sourceKey":"output","destinationUnit":{"$ref":"20"},"destinationKey":"b","guid":"76f5ee7b-cfce-4334-8db1-3ee549c4e153","$type":"Bolt.ValueConnection"},{"sourceUnit":{"$ref":"20"},"sourceKey":"product","destinationUnit":{"$ref":"37"},"destinationKey":"%xAngle","guid":"2c974d69-956f-4075-afe2-f4f0dc56b60b","$type":"Bolt.ValueConnection"},{"sourceUnit":{"$ref":"22"},"sourceKey":"value","destinationUnit":{"$ref":"16"},"destinationKey":"a","guid":"bc878370-2726-4482-b3db-ae4b2ac071c5","$type":"Bolt.ValueConnection"},{"sourceUnit":{"$ref":"16"},"sourceKey":"product","destinationUnit":{"$ref":"34"},"destinationKey":"%yAngle","guid":"d3d92cf4-3bae-4388-9d61-03ea979b03f8","$type":"Bolt.ValueConnection"},{"sourceUnit":{"$ref":"56"},"sourceKey":"result","destinationUnit":{"$ref":"54"},"destinationKey":"a","guid":"fbf68faa-af7b-4ff2-b9f2-85a4c92dbe81","$type":"Bolt.ValueConnection"},{"sourceUnit":{"$ref":"22"},"sourceKey":"value","destinationUnit":{"$ref":"25"},"destinationKey":"b","guid":"7fbe30cf-dd26-43f7-a173-ede7d78d306b","$type":"Bolt.ValueConnection"},{"sourceUnit":{"$ref":"86"},"sourceKey":"result","destinationUnit":{"$ref":"83"},"destinationKey":"target","guid":"412c0545-5752-4fba-8e0c-79507c44bf31","$type":"Bolt.ValueConnection"},{"sourceUnit":{"$ref":"81"},"sourceKey":"product","destinationUnit":{"$ref":"65"},"destinationKey":"%z","guid":"974984b9-2c0d-47c5-b300-54dd785f6f2d","$type":"Bolt.ValueConnection"},{"sourceUnit":{"$ref":"54"},"sourceKey":"product","destinationUnit":{"$ref":"79"},"destinationKey":"a","guid":"59f768cf-cebb-476a-895c-2d1be1e2dbd6","$type":"Bolt.ValueConnection"},{"sourceUnit":{"$ref":"71"},"sourceKey":"value","destinationUnit":{"$ref":"79"},"destinationKey":"b","guid":"c75d16f1-564e-4b57-8c9e-b3b672693518","$type":"Bolt.ValueConnection"},{"sourceUnit":{"$ref":"79"},"sourceKey":"product","destinationUnit":{"$ref":"59"},"destinationKey":"%yAngle","guid":"b2c2750b-e39d-45cc-a86c-faff747270ac","$type":"Bolt.ValueConnection"},{"sourceUnit":{"$ref":"76"},"sourceKey":"result","destinationUnit":{"$ref":"44"},"destinationKey":"a","guid":"0ac31503-985b-41f8-9a37-e2ac1502c10a","$type":"Bolt.ValueConnection"},{"sourceUnit":{"$ref":"89"},"sourceKey":"value","destinationUnit":{"$ref":"44"},"destinationKey":"b","guid":"6cf8cc89-953b-4a0d-9c42-a68c105b839f","$type":"Bolt.ValueConnection"},{"sourceUnit":{"$ref":"46"},"sourceKey":"result","destinationUnit":{"$ref":"14"},"destinationKey":"a","guid":"07cfcb06-2857-4c9f-9094-cb3350ae1c61","$type":"Bolt.ValueConnection"},{"sourceUnit":{"$ref":"68"},"sourceKey":"value","destinationUnit":{"$ref":"81"},"destinationKey":"b","guid":"edee6866-1ad5-46ce-822c-71da05143847","$type":"Bolt.ValueConnection"},{"sourceUnit":{"$ref":"12"},"sourceKey":"value","destinationUnit":{"$ref":"14"},"destinationKey":"b","guid":"13339b77-8b3f-4164-aa5e-7d1c255e925f","$type":"Bolt.ValueConnection"}],"$version":"A"}}}'
    _objectReferences:
    - {fileID: 963194228}
--- !u!1 &851260427
GameObject:
  m_ObjectHideFlags: 0
  m_CorrespondingSourceObject: {fileID: 0}
  m_PrefabInstance: {fileID: 0}
  m_PrefabAsset: {fileID: 0}
  serializedVersion: 6
  m_Component:
  - component: {fileID: 851260431}
  - component: {fileID: 851260430}
  - component: {fileID: 851260429}
  - component: {fileID: 851260428}
  m_Layer: 0
  m_Name: Plane
  m_TagString: Untagged
  m_Icon: {fileID: 0}
  m_NavMeshLayer: 0
  m_StaticEditorFlags: 0
  m_IsActive: 1
--- !u!64 &851260428
MeshCollider:
  m_ObjectHideFlags: 0
  m_CorrespondingSourceObject: {fileID: 0}
  m_PrefabInstance: {fileID: 0}
  m_PrefabAsset: {fileID: 0}
  m_GameObject: {fileID: 851260427}
  m_Material: {fileID: 0}
  m_IsTrigger: 0
  m_Enabled: 1
  serializedVersion: 4
  m_Convex: 0
  m_CookingOptions: 30
  m_Mesh: {fileID: 10209, guid: 0000000000000000e000000000000000, type: 0}
--- !u!23 &851260429
MeshRenderer:
  m_ObjectHideFlags: 0
  m_CorrespondingSourceObject: {fileID: 0}
  m_PrefabInstance: {fileID: 0}
  m_PrefabAsset: {fileID: 0}
  m_GameObject: {fileID: 851260427}
  m_Enabled: 1
  m_CastShadows: 1
  m_ReceiveShadows: 1
  m_DynamicOccludee: 1
  m_MotionVectors: 1
  m_LightProbeUsage: 1
  m_ReflectionProbeUsage: 1
  m_RayTracingMode: 2
  m_RenderingLayerMask: 1
  m_RendererPriority: 0
  m_Materials:
  - {fileID: 10303, guid: 0000000000000000f000000000000000, type: 0}
  m_StaticBatchInfo:
    firstSubMesh: 0
    subMeshCount: 0
  m_StaticBatchRoot: {fileID: 0}
  m_ProbeAnchor: {fileID: 0}
  m_LightProbeVolumeOverride: {fileID: 0}
  m_ScaleInLightmap: 1
  m_ReceiveGI: 1
  m_PreserveUVs: 0
  m_IgnoreNormalsForChartDetection: 0
  m_ImportantGI: 0
  m_StitchLightmapSeams: 1
  m_SelectedEditorRenderState: 3
  m_MinimumChartSize: 4
  m_AutoUVMaxDistance: 0.5
  m_AutoUVMaxAngle: 89
  m_LightmapParameters: {fileID: 0}
  m_SortingLayerID: 0
  m_SortingLayer: 0
  m_SortingOrder: 0
--- !u!33 &851260430
MeshFilter:
  m_ObjectHideFlags: 0
  m_CorrespondingSourceObject: {fileID: 0}
  m_PrefabInstance: {fileID: 0}
  m_PrefabAsset: {fileID: 0}
  m_GameObject: {fileID: 851260427}
  m_Mesh: {fileID: 10209, guid: 0000000000000000e000000000000000, type: 0}
--- !u!4 &851260431
Transform:
  m_ObjectHideFlags: 0
  m_CorrespondingSourceObject: {fileID: 0}
  m_PrefabInstance: {fileID: 0}
  m_PrefabAsset: {fileID: 0}
  m_GameObject: {fileID: 851260427}
  m_LocalRotation: {x: 0, y: 0, z: 0, w: 1}
  m_LocalPosition: {x: 2.065, y: -0.74, z: -3.1646}
  m_LocalScale: {x: 4.3973, y: 4.3973, z: 4.3973}
  m_Children: []
  m_Father: {fileID: 0}
  m_RootOrder: 7
  m_LocalEulerAnglesHint: {x: 0, y: 0, z: 0}
--- !u!1 &963194225
GameObject:
  m_ObjectHideFlags: 0
  m_CorrespondingSourceObject: {fileID: 0}
  m_PrefabInstance: {fileID: 0}
  m_PrefabAsset: {fileID: 0}
  serializedVersion: 6
  m_Component:
  - component: {fileID: 963194228}
  - component: {fileID: 963194227}
  - component: {fileID: 963194226}
  m_Layer: 0
  m_Name: FPSCamera
  m_TagString: MainCamera
  m_Icon: {fileID: 0}
  m_NavMeshLayer: 0
  m_StaticEditorFlags: 0
  m_IsActive: 1
--- !u!81 &963194226
AudioListener:
  m_ObjectHideFlags: 0
  m_CorrespondingSourceObject: {fileID: 0}
  m_PrefabInstance: {fileID: 0}
  m_PrefabAsset: {fileID: 0}
  m_GameObject: {fileID: 963194225}
  m_Enabled: 1
--- !u!20 &963194227
Camera:
  m_ObjectHideFlags: 0
  m_CorrespondingSourceObject: {fileID: 0}
  m_PrefabInstance: {fileID: 0}
  m_PrefabAsset: {fileID: 0}
  m_GameObject: {fileID: 963194225}
  m_Enabled: 1
  serializedVersion: 2
  m_ClearFlags: 1
  m_BackGroundColor: {r: 0.19215687, g: 0.3019608, b: 0.4745098, a: 0}
  m_projectionMatrixMode: 1
  m_GateFitMode: 2
  m_FOVAxisMode: 0
  m_SensorSize: {x: 36, y: 24}
  m_LensShift: {x: 0, y: 0}
  m_FocalLength: 50
  m_NormalizedViewPortRect:
    serializedVersion: 2
    x: 0
    y: 0
    width: 1
    height: 1
  near clip plane: 0.3
  far clip plane: 1000
  field of view: 60
  orthographic: 0
  orthographic size: 5
  m_Depth: -1
  m_CullingMask:
    serializedVersion: 2
    m_Bits: 4294967295
  m_RenderingPath: -1
  m_TargetTexture: {fileID: 0}
  m_TargetDisplay: 0
  m_TargetEye: 3
  m_HDR: 1
  m_AllowMSAA: 1
  m_AllowDynamicResolution: 0
  m_ForceIntoRT: 0
  m_OcclusionCulling: 1
  m_StereoConvergence: 10
  m_StereoSeparation: 0.022
--- !u!4 &963194228
Transform:
  m_ObjectHideFlags: 0
  m_CorrespondingSourceObject: {fileID: 0}
  m_PrefabInstance: {fileID: 0}
  m_PrefabAsset: {fileID: 0}
  m_GameObject: {fileID: 963194225}
  m_LocalRotation: {x: 0, y: 0.007853894, z: 0, w: 0.9999692}
  m_LocalPosition: {x: 0.25, y: 0.75, z: 0}
  m_LocalScale: {x: 1, y: 1, z: 1}
  m_Children: []
  m_Father: {fileID: 785059144}
  m_RootOrder: 0
  m_LocalEulerAnglesHint: {x: 0, y: 0.9, z: 0}
--- !u!43 &1301703259
Mesh:
  m_ObjectHideFlags: 0
  m_CorrespondingSourceObject: {fileID: 0}
  m_PrefabInstance: {fileID: 0}
  m_PrefabAsset: {fileID: 0}
  m_Name: pb_Mesh14234
  serializedVersion: 10
  m_SubMeshes:
  - serializedVersion: 2
    firstByte: 0
    indexCount: 0
    topology: 0
    baseVertex: 0
    firstVertex: 0
    vertexCount: 0
    localAABB:
      m_Center: {x: 0, y: 0, z: 0}
      m_Extent: {x: 0, y: 0, z: 0}
  m_Shapes:
    vertices: []
    shapes: []
    channels: []
    fullWeights: []
  m_BindPose: []
  m_BoneNameHashes: 
  m_RootBoneNameHash: 0
  m_BonesAABB: []
  m_VariableBoneCountWeights:
    m_Data: 
  m_MeshCompression: 0
  m_IsReadable: 1
  m_KeepVertices: 1
  m_KeepIndices: 1
  m_IndexFormat: 0
  m_IndexBuffer: 
  m_VertexData:
    serializedVersion: 3
    m_VertexCount: 0
    m_Channels:
    - stream: 0
      offset: 0
      format: 0
      dimension: 3
    - stream: 0
      offset: 0
      format: 0
      dimension: 0
    - stream: 0
      offset: 0
      format: 0
      dimension: 0
    - stream: 0
      offset: 0
      format: 0
      dimension: 0
    - stream: 0
      offset: 0
      format: 0
      dimension: 0
    - stream: 0
      offset: 0
      format: 0
      dimension: 0
    - stream: 0
      offset: 0
      format: 0
      dimension: 0
    - stream: 0
      offset: 0
      format: 0
      dimension: 0
    - stream: 0
      offset: 0
      format: 0
      dimension: 0
    - stream: 0
      offset: 0
      format: 0
      dimension: 0
    - stream: 0
      offset: 0
      format: 0
      dimension: 0
    - stream: 0
      offset: 0
      format: 0
      dimension: 0
    - stream: 0
      offset: 0
      format: 0
      dimension: 0
    - stream: 0
      offset: 0
      format: 0
      dimension: 0
    m_DataSize: 0
    _typelessdata: 
  m_CompressedMesh:
    m_Vertices:
      m_NumItems: 0
      m_Range: 0
      m_Start: 0
      m_Data: 
      m_BitSize: 0
    m_UV:
      m_NumItems: 0
      m_Range: 0
      m_Start: 0
      m_Data: 
      m_BitSize: 0
    m_Normals:
      m_NumItems: 0
      m_Range: 0
      m_Start: 0
      m_Data: 
      m_BitSize: 0
    m_Tangents:
      m_NumItems: 0
      m_Range: 0
      m_Start: 0
      m_Data: 
      m_BitSize: 0
    m_Weights:
      m_NumItems: 0
      m_Data: 
      m_BitSize: 0
    m_NormalSigns:
      m_NumItems: 0
      m_Data: 
      m_BitSize: 0
    m_TangentSigns:
      m_NumItems: 0
      m_Data: 
      m_BitSize: 0
    m_FloatColors:
      m_NumItems: 0
      m_Range: 0
      m_Start: 0
      m_Data: 
      m_BitSize: 0
    m_BoneIndices:
      m_NumItems: 0
      m_Data: 
      m_BitSize: 0
    m_Triangles:
      m_NumItems: 0
      m_Data: 
      m_BitSize: 0
    m_UVInfo: 0
  m_LocalAABB:
    m_Center: {x: 0, y: 0, z: 0}
    m_Extent: {x: 0, y: 0, z: 0}
  m_MeshUsageFlags: 0
  m_BakedConvexCollisionMesh: 
  m_BakedTriangleCollisionMesh: 
  m_MeshMetrics[0]: 1
  m_MeshMetrics[1]: 1
  m_MeshOptimizationFlags: 1
  m_StreamData:
    offset: 0
    size: 0
    path: 
--- !u!1 &1324424874
GameObject:
  m_ObjectHideFlags: 0
  m_CorrespondingSourceObject: {fileID: 0}
  m_PrefabInstance: {fileID: 0}
  m_PrefabAsset: {fileID: 0}
  serializedVersion: 6
  m_Component:
  - component: {fileID: 1324424878}
  - component: {fileID: 1324424877}
  - component: {fileID: 1324424876}
  - component: {fileID: 1324424875}
  - component: {fileID: 1324424879}
  m_Layer: 0
  m_Name: Capsule
  m_TagString: Untagged
  m_Icon: {fileID: 0}
  m_NavMeshLayer: 0
  m_StaticEditorFlags: 0
  m_IsActive: 1
--- !u!136 &1324424875
CapsuleCollider:
  m_ObjectHideFlags: 0
  m_CorrespondingSourceObject: {fileID: 0}
  m_PrefabInstance: {fileID: 0}
  m_PrefabAsset: {fileID: 0}
  m_GameObject: {fileID: 1324424874}
  m_Material: {fileID: 0}
  m_IsTrigger: 0
  m_Enabled: 1
  m_Radius: 0.5
  m_Height: 2
  m_Direction: 1
  m_Center: {x: 0, y: 0, z: 0}
--- !u!23 &1324424876
MeshRenderer:
  m_ObjectHideFlags: 0
  m_CorrespondingSourceObject: {fileID: 0}
  m_PrefabInstance: {fileID: 0}
  m_PrefabAsset: {fileID: 0}
  m_GameObject: {fileID: 1324424874}
  m_Enabled: 1
  m_CastShadows: 1
  m_ReceiveShadows: 1
  m_DynamicOccludee: 1
  m_MotionVectors: 1
  m_LightProbeUsage: 1
  m_ReflectionProbeUsage: 1
  m_RayTracingMode: 2
  m_RenderingLayerMask: 1
  m_RendererPriority: 0
  m_Materials:
  - {fileID: 2100000, guid: 3236ee867bb7f0e46837007039532d81, type: 2}
  m_StaticBatchInfo:
    firstSubMesh: 0
    subMeshCount: 0
  m_StaticBatchRoot: {fileID: 0}
  m_ProbeAnchor: {fileID: 0}
  m_LightProbeVolumeOverride: {fileID: 0}
  m_ScaleInLightmap: 1
  m_ReceiveGI: 1
  m_PreserveUVs: 0
  m_IgnoreNormalsForChartDetection: 0
  m_ImportantGI: 0
  m_StitchLightmapSeams: 1
  m_SelectedEditorRenderState: 3
  m_MinimumChartSize: 4
  m_AutoUVMaxDistance: 0.5
  m_AutoUVMaxAngle: 89
  m_LightmapParameters: {fileID: 0}
  m_SortingLayerID: 0
  m_SortingLayer: 0
  m_SortingOrder: 0
--- !u!33 &1324424877
MeshFilter:
  m_ObjectHideFlags: 0
  m_CorrespondingSourceObject: {fileID: 0}
  m_PrefabInstance: {fileID: 0}
  m_PrefabAsset: {fileID: 0}
  m_GameObject: {fileID: 1324424874}
  m_Mesh: {fileID: 10208, guid: 0000000000000000e000000000000000, type: 0}
--- !u!4 &1324424878
Transform:
  m_ObjectHideFlags: 0
  m_CorrespondingSourceObject: {fileID: 0}
  m_PrefabInstance: {fileID: 0}
  m_PrefabAsset: {fileID: 0}
  m_GameObject: {fileID: 1324424874}
  m_LocalRotation: {x: -0, y: -0, z: -0, w: 1}
  m_LocalPosition: {x: -1.1343818, y: -0.5127293, z: 0.48322225}
  m_LocalScale: {x: 1, y: 1, z: 1}
  m_Children:
  - {fileID: 368512201}
  - {fileID: 182040289}
  m_Father: {fileID: 785059144}
  m_RootOrder: 1
  m_LocalEulerAnglesHint: {x: 0, y: 0, z: 0}
--- !u!114 &1324424879
MonoBehaviour:
  m_ObjectHideFlags: 0
  m_CorrespondingSourceObject: {fileID: 0}
  m_PrefabInstance: {fileID: 0}
  m_PrefabAsset: {fileID: 0}
  m_GameObject: {fileID: 1324424874}
  m_Enabled: 1
  m_EditorHideFlags: 0
  m_Script: {fileID: -1465209106, guid: c8d0ad23af520fe46aabe2b1fecf6462, type: 3}
  m_Name: 
  m_EditorClassIdentifier: 
  _data:
    _json: '{"declarations":{"collection":{"$content":[],"$version":"A"},"$version":"A"}}'
    _objectReferences: []
--- !u!1 &1724841180
GameObject:
  m_ObjectHideFlags: 0
  m_CorrespondingSourceObject: {fileID: 0}
  m_PrefabInstance: {fileID: 0}
  m_PrefabAsset: {fileID: 0}
  serializedVersion: 6
  m_Component:
  - component: {fileID: 1724841181}
  - component: {fileID: 1724841184}
  - component: {fileID: 1724841183}
  - component: {fileID: 1724841182}
  m_Layer: 0
  m_Name: Cube
  m_TagString: Untagged
  m_Icon: {fileID: 0}
  m_NavMeshLayer: 0
  m_StaticEditorFlags: 0
  m_IsActive: 1
--- !u!4 &1724841181
Transform:
  m_ObjectHideFlags: 0
  m_CorrespondingSourceObject: {fileID: 0}
  m_PrefabInstance: {fileID: 0}
  m_PrefabAsset: {fileID: 0}
  m_GameObject: {fileID: 1724841180}
  m_LocalRotation: {x: -0, y: -0, z: -0, w: 1}
  m_LocalPosition: {x: -9.49, y: -0.26, z: 3.1600003}
  m_LocalScale: {x: 3.6243644, y: 0.9882728, z: 7.549993}
  m_Children: []
  m_Father: {fileID: 0}
  m_RootOrder: 3
  m_LocalEulerAnglesHint: {x: 0, y: 0, z: 0}
--- !u!65 &1724841182
BoxCollider:
  m_ObjectHideFlags: 0
  m_CorrespondingSourceObject: {fileID: 0}
  m_PrefabInstance: {fileID: 0}
  m_PrefabAsset: {fileID: 0}
  m_GameObject: {fileID: 1724841180}
  m_Material: {fileID: 0}
  m_IsTrigger: 0
  m_Enabled: 1
  serializedVersion: 2
  m_Size: {x: 1, y: 1, z: 1}
  m_Center: {x: 0, y: 0, z: 0}
--- !u!23 &1724841183
MeshRenderer:
  m_ObjectHideFlags: 0
  m_CorrespondingSourceObject: {fileID: 0}
  m_PrefabInstance: {fileID: 0}
  m_PrefabAsset: {fileID: 0}
  m_GameObject: {fileID: 1724841180}
  m_Enabled: 1
  m_CastShadows: 1
  m_ReceiveShadows: 1
  m_DynamicOccludee: 1
  m_MotionVectors: 1
  m_LightProbeUsage: 1
  m_ReflectionProbeUsage: 1
  m_RayTracingMode: 2
  m_RenderingLayerMask: 1
  m_RendererPriority: 0
  m_Materials:
  - {fileID: 2100000, guid: 77c8cfc4c36347d4cafeef713c6f28ac, type: 2}
  m_StaticBatchInfo:
    firstSubMesh: 0
    subMeshCount: 0
  m_StaticBatchRoot: {fileID: 0}
  m_ProbeAnchor: {fileID: 0}
  m_LightProbeVolumeOverride: {fileID: 0}
  m_ScaleInLightmap: 1
  m_ReceiveGI: 1
  m_PreserveUVs: 0
  m_IgnoreNormalsForChartDetection: 0
  m_ImportantGI: 0
  m_StitchLightmapSeams: 1
  m_SelectedEditorRenderState: 3
  m_MinimumChartSize: 4
  m_AutoUVMaxDistance: 0.5
  m_AutoUVMaxAngle: 89
  m_LightmapParameters: {fileID: 0}
  m_SortingLayerID: 0
  m_SortingLayer: 0
  m_SortingOrder: 0
--- !u!33 &1724841184
MeshFilter:
  m_ObjectHideFlags: 0
  m_CorrespondingSourceObject: {fileID: 0}
  m_PrefabInstance: {fileID: 0}
  m_PrefabAsset: {fileID: 0}
  m_GameObject: {fileID: 1724841180}
  m_Mesh: {fileID: 10202, guid: 0000000000000000e000000000000000, type: 0}
--- !u!1 &1959727123
GameObject:
  m_ObjectHideFlags: 0
  m_CorrespondingSourceObject: {fileID: 0}
  m_PrefabInstance: {fileID: 0}
  m_PrefabAsset: {fileID: 0}
  serializedVersion: 6
  m_Component:
  - component: {fileID: 1959727124}
  - component: {fileID: 1959727127}
  - component: {fileID: 1959727126}
  - component: {fileID: 1959727125}
  m_Layer: 0
  m_Name: Cylinder
  m_TagString: Untagged
  m_Icon: {fileID: 0}
  m_NavMeshLayer: 0
  m_StaticEditorFlags: 0
  m_IsActive: 1
--- !u!4 &1959727124
Transform:
  m_ObjectHideFlags: 0
  m_CorrespondingSourceObject: {fileID: 0}
  m_PrefabInstance: {fileID: 0}
  m_PrefabAsset: {fileID: 0}
  m_GameObject: {fileID: 1959727123}
  m_LocalRotation: {x: -0, y: -0, z: -0, w: 1}
  m_LocalPosition: {x: -2.1082835, y: -0.48000085, z: 7.8500004}
  m_LocalScale: {x: 1.7719998, y: 1.7719998, z: 1.7719998}
  m_Children: []
  m_Father: {fileID: 0}
  m_RootOrder: 4
  m_LocalEulerAnglesHint: {x: 0, y: 0, z: 0}
--- !u!136 &1959727125
CapsuleCollider:
  m_ObjectHideFlags: 0
  m_CorrespondingSourceObject: {fileID: 0}
  m_PrefabInstance: {fileID: 0}
  m_PrefabAsset: {fileID: 0}
  m_GameObject: {fileID: 1959727123}
  m_Material: {fileID: 0}
  m_IsTrigger: 0
  m_Enabled: 1
  m_Radius: 0.5000001
  m_Height: 2
  m_Direction: 1
  m_Center: {x: 0.000000059604645, y: 0, z: -0.00000008940697}
--- !u!23 &1959727126
MeshRenderer:
  m_ObjectHideFlags: 0
  m_CorrespondingSourceObject: {fileID: 0}
  m_PrefabInstance: {fileID: 0}
  m_PrefabAsset: {fileID: 0}
  m_GameObject: {fileID: 1959727123}
  m_Enabled: 1
  m_CastShadows: 1
  m_ReceiveShadows: 1
  m_DynamicOccludee: 1
  m_MotionVectors: 1
  m_LightProbeUsage: 1
  m_ReflectionProbeUsage: 1
  m_RayTracingMode: 2
  m_RenderingLayerMask: 1
  m_RendererPriority: 0
  m_Materials:
  - {fileID: 2100000, guid: 9912217b12dcd1f4591b1cc3a5b7f700, type: 2}
  m_StaticBatchInfo:
    firstSubMesh: 0
    subMeshCount: 0
  m_StaticBatchRoot: {fileID: 0}
  m_ProbeAnchor: {fileID: 0}
  m_LightProbeVolumeOverride: {fileID: 0}
  m_ScaleInLightmap: 1
  m_ReceiveGI: 1
  m_PreserveUVs: 0
  m_IgnoreNormalsForChartDetection: 0
  m_ImportantGI: 0
  m_StitchLightmapSeams: 1
  m_SelectedEditorRenderState: 3
  m_MinimumChartSize: 4
  m_AutoUVMaxDistance: 0.5
  m_AutoUVMaxAngle: 89
  m_LightmapParameters: {fileID: 0}
  m_SortingLayerID: 0
  m_SortingLayer: 0
  m_SortingOrder: 0
--- !u!33 &1959727127
MeshFilter:
  m_ObjectHideFlags: 0
  m_CorrespondingSourceObject: {fileID: 0}
  m_PrefabInstance: {fileID: 0}
  m_PrefabAsset: {fileID: 0}
  m_GameObject: {fileID: 1959727123}
  m_Mesh: {fileID: 10206, guid: 0000000000000000e000000000000000, type: 0}
